Name,Team,BirthYear,BodyweightKg,Squat1Kg,Squat2Kg,Squat3Kg,Best3SquatKg,Bench1Kg,Bench2Kg,Bench3Kg,Best3BenchKg,Deadlift1Kg,Deadlift2Kg,Deadlift3Kg,Best3DeadliftKg,TotalKg,Place,Sex,Division,WeightClassKg,Equipment,Event,BirthDate
Ana Geitner,KSV Renchtal,1967,42.32,-105,105,-115,105,37.5,40,-42.5,40,135,142.5,-147.5,142.5,287.5,2,F,Open,47,Single-ply,SBD,
Anja Schreiner,SC Oberölsbach,1993,46.76,165,-170,,165,95,100,105,105,137.5,-145,-145,137.5,407.5,1,F,Open,47,Single-ply,SBD,
Ira Neitzel,Kraftsport Colonia,1981,51.49,125,130,-135,130,67.5,72.5,77.5,77.5,107.5,117.5,127.5,127.5,335,1,F,Open,52,Single-ply,SBD,
Romina Basting,Aachener Kraftsport e.V.,1993,51.66,-135,-140,-145,,77.5,-82.5,90,90,130,-140,-140,130,,DQ,F,Open,52,Single-ply,SBD,
Tanja Gier,KSV Renchtal,1968,54.67,97.5,105,112.5,112.5,62.5,-67.5,-67.5,62.5,105,115,125,125,300,1,F,Masters 2,57,Single-ply,SBD,
Phuong-Anh Nguyen,Hantelsport-Club Pfatter e.V,1995,56.07,160,-170,-175,160,75,80,-82.5,80,125,137.5,145,145,385,1,F,Open,57,Single-ply,SBD,
Karolina Moszynska,KSV Mainz 08,1986,56.99,-180,186,-200,186,,,,,,,,,,DQ,F,Open,57,Single-ply,SBD,
Pia Kring,AC Power Elite Haiger e.V.,1957,58.27,-90,90,-95,90,77.5,82.5,85,85,130,135,140,140,315,1,F,Masters 3,63,Single-ply,SBD,
Beate Normann-Escher,Polizeisportverein Sonneberg e.V.,1960,59.92,50,60,70,70,45,50,-52.5,50,70,82.5,-92.5,82.5,202.5,2,F,Masters 3,63,Single-ply,SBD,
Manuela Hauß,KSV Renchtal,1980,61.28,-125,125,-130,125,67.5,-72.5,72.5,72.5,125,140,150,150,347.5,1,F,Masters 1,63,Single-ply,SBD,
Lea-Sophie Gersberg,Turnverein Papenburg v. 1896 e.V.,1997,61.52,145,152.5,157.5,157.5,-107.5,107.5,-115,107.5,142.5,150,155,155,420,1,F,Juniors,63,Single-ply,SBD,
Tabea Wiedenhofer,Schwerathletik Verein Erfurt e.V.,1996,62.16,165,172.5,-180,172.5,102.5,105,107.5,107.5,147.5,155,-157.5,155,435,1,F,Open,63,Single-ply,SBD,
Lisa Schlagbauer,Powerlifting Würzburg e.V.,1996,62.48,155,-162.5,-165,155,100,105,-110,105,160,170,-177.5,170,430,2,F,Open,63,Single-ply,SBD,
Marie Hauschild,Schwerathletik Verein Erfurt e.V.,1995,66.45,185,190,195,195,110,117.5,122.5,122.5,160,167.5,172.5,172.5,490,4,F,Open,72,Single-ply,SBD,
Nicole Börsch,Kraftsportverein 1959 Langen e.V.,1976,69.14,155,165,175,175,135,140,145,145,160,170,-180,170,490,1,F,Masters 1,72,Single-ply,SBD,
Cathrin Monika Silberzahn,Powerlifting Würzburg e.V.,1988,69.66,-230,-230,230,230,-135,135,-147.5,135,202.5,-212.5,-213,202.5,567.5,1,F,Open,72,Single-ply,SBD,
Verena Rehagel,Powerlifting Würzburg e.V.,1980,69.9,130,-140,-140,130,60,80,-85,80,140,150,-160,150,360,2,F,Masters 1,72,Single-ply,SBD,
Sofia Walter,SC Oberölsbach,1996,70.01,195,205,215,215,97.5,102.5,107.5,107.5,155,165,172.5,172.5,495,3,F,Open,72,Single-ply,SBD,
Sonja Stefanie Krüger,Fitness-Club Rhein-Main e.V.,1999,70.04,240,250,255,255,162.5,-182.5,-182.5,162.5,-182.5,-182.5,-182.5,,,DQ,F,Open,72,Single-ply,SBD,
Anna Beckenbach,AV "Vorwärts" 05 Groß-Zimmern,1997,70.22,155,-167.5,170,170,75,95,102.5,102.5,160,175,-182.5,175,447.5,1,F,Juniors,72,Single-ply,SBD,
Katja Broxtermann,Sanssouci Gym e. V. Potsdam,1986,71.6,190,197.5,-200,197.5,130,135,-140,135,160,167.5,170,170,502.5,2,F,Open,72,Single-ply,SBD,
Sandra Beyer,Fitness-Club Rhein-Main e.V.,1988,77,190,200,-205,200,40,,,40,75,-147.5,-147.5,75,315,1,F,Open,84,Single-ply,SBD,
Sybille Hampel,AC Oppenau 1984 e.V.,1967,78.27,-145,-150,-150,,,,,,,,,,,DQ,F,Masters 2,84,Single-ply,SBD,
Lea Schreiner,KSV Mainz 08,1995,84.01,-190,-200,205,205,-105,105,-110,105,195,-210,-210,195,505,1,F,Open,84+,Single-ply,SBD,
Stephanie Ils,Fitboxcamp Powerlifting e.V. Lohr am Main,1990,92.47,120,132.5,140,140,60,72.5,-80,72.5,120,,,120,332.5,2,F,Open,84+,Single-ply,SBD,
Petra Hoffmann,Corpus Fitness Weightplayers 1999 e.V.,1980,141.13,175,205,-220,205,110,122.5,-130,122.5,165,-180,,165,492.5,1,F,Masters 1,84+,Single-ply,SBD,
Hieu Le,AC Bavaria Forchheim 1908 e.V.,1993,64,200,210,217.5,217.5,110,-115,-115,110,190,202.5,-207.5,202.5,530,2,M,Open,66,Single-ply,SBD,
Michael Wimmer,Turngemeinde Landshut 1861 e.V.,1961,64.23,120,130,140,140,90,95,100,100,160,170,-180,170,410,1,M,Masters 2,66,Single-ply,SBD,
Oliver Franz Ehrnsperger,SC Oberölsbach,2004,64.69,-115,115,135,135,70,77.5,85,85,-145,150,160,160,380,1,M,Youth,66,Single-ply,SBD,
Huu Phuoc Le,ESV München-Neuaubing,1993,65.35,207.5,215,225,225,145,157.5,-170,157.5,192.5,202.5,-217.5,202.5,585,1,M,Open,66,Single-ply,SBD,
Ludwig Werner,AC Germania 1900 Aschaffenburg-Schweinh,1938,65.56,100,-110,-110,100,-70,70,75,75,130,135,-140,135,310,1,M,Masters 4,66,Single-ply,SBD,
Wilfried Häusler,MTV VJ Peine,1942,70.16,110,120,130,130,70,80,,80,130,-140,140,140,350,1,M,Masters 4,74,Single-ply,SBD,
Johannes Fischer,Hantelsport-Club Pfatter e.V,1996,71.72,207.5,215,220,220,125,130,-135,130,205,215,-227.5,215,565,2,M,Open,74,Single-ply,SBD,
Christian Henneberger,SG Randersacker,1973,73.43,210,220,230,230,125,132.5,137.5,137.5,215,230,235,235,602.5,1,M,Masters 1,74,Single-ply,SBD,
Sebastian Kienast,Powerlifting Mühl Rosin e.V.,1981,73.53,220,-230,230,230,115,-120,120,120,215,227.5,235,235,585,1,M,Open,74,Single-ply,SBD,
Klaus Griesch,Iron Athletik Sportclub Erfurt e.V.,1959,73.98,160,180,,180,170,-177.5,-180,170,150,-170,,150,500,1,M,Masters 3,74,Single-ply,SBD,
Fabio Tomic,TSV 1892 Heiligenrode e.V.,2002,77.09,205,215,-225,215,-135,137.5,-145,137.5,190,205,-215,205,557.5,1,M,Youth,83,Single-ply,SBD,
Eduard Eida,SV Quitt Ankum e.V. 1919,2001,78.13,250,260,-270,260,175,180,185,185,240,250,255,255,700,2,M,Juniors,83,Single-ply,SBD,
Ingo Woschny,Sanssouci Gym e. V. Potsdam,1965,79.07,170,180,200,200,160,170,-180,170,160,175,182.5,182.5,552.5,3,M,Masters 2,83,Single-ply,SBD,
Jonas Diefenbach,KSV Essen 1888 e.V.,1998,79.71,-245,-245,-250,-245,-150,150,-155,150,-220,-220,,,,DQ,M,Juniors,83,Single-ply,SBD,
Peter Leister,Kraftsportverein 1959 Langen e.V.,1958,79.98,-165,165,175,175,-135,135,-140,135,165,-185,-185,165,475,2,M,Masters 3,83,Single-ply,SBD,
Marius Milla,KSV Mainz 08,1993,81.29,275,290,300,300,175,-185,-185,175,-280,280,292.5,292.5,767.5,1,M,Open,83,Single-ply,SBD,
Benedict Schmidt,SC Oberölsbach,2000,81.56,-235,-235,235,235,-155,-155,-155,-155,235,250,-265,250,,DQ,M,Juniors,83,Single-ply,SBD,
Silas Krejci,SC Oberölsbach,1999,81.65,-300,-300,300,300,160,167.5,177.5,177.5,245,260,270,270,747.5,1,M,Juniors,83,Single-ply,SBD,
Hans-Joachim Hook,AC 1888 Marburg e.V.,1954,81.95,152.5,162.5,170,170,117.5,-122.5,122.5,122.5,-207.5,207.5,-237.5,207.5,500,1,M,Masters 3,83,Single-ply,SBD,
Thomas Geserer,Hantelsport-Club Pfatter e.V,1997,81.97,-260,260,272.5,272.5,160,167.5,-172.5,167.5,230,235,242.5,242.5,682.5,4,M,Juniors,83,Single-ply,SBD,
Jan Andreas Smolczyk,Powerlifting Duisburg e.V.,1970,82.03,210,225,232.5,232.5,155,162.5,167.5,167.5,235,252.5,260,260,660,2,M,Masters 2,83,Single-ply,SBD,
Mirko Münch,Powerlifting Würzburg e.V.,1997,82.09,250,260,-270,260,-162.5,-162.5,162.5,162.5,250,260,262.5,262.5,685,3,M,Juniors,83,Single-ply,SBD,
Simon Eichler,AC Bavaria Forchheim 1908 e.V.,1993,82.42,-240,-245,-247.5,,185,195,200,200,235,255,265,265,,DQ,M,Open,83,Single-ply,SBD,
Marco Dömling,SG Randersacker,1976,82.53,210,-230,-230,210,130,137.5,142.5,142.5,200,215,222.5,222.5,575,2,M,Masters 1,83,Single-ply,SBD,
Rolf Hampel,AC Oppenau 1984 e.V.,1961,82.6,267.5,282.5,,282.5,-147.5,-147.5,147.5,147.5,225,247.5,262.5,262.5,692.5,1,M,Masters 2,83,Single-ply,SBD,
Günter Lüdecke,VfB Klötze 07,1948,82.63,170,180,,180,82.5,85,87.5,87.5,180,190,,190,457.5,1,M,Masters 4,83,Single-ply,SBD,
Manuel Gonnermann,Schwerathletik Verein Erfurt e.V.,1993,82.65,285,-310,-310,285,-175,-180,182.5,182.5,-260,260,292.5,292.5,760,2,M,Open,83,Single-ply,SBD,
René Borchert,VfB Klötze 07,1998,82.82,-220,220,-240,220,-170,170,175,175,180,190,-200,190,585,6,M,Juniors,83,Single-ply,SBD,
Maximilian Weigandt,SV Quitt Ankum e.V. 1919,2001,82.92,200,-210,-215,200,165,-172.5,-175,165,230,-240,-240,230,595,5,M,Juniors,83,Single-ply,SBD,
Matthias Stach,Athletik Club 1892 Weinheim e. V.,1979,82.92,235,247.5,255,255,155,-162.5,-162.5,155,240,255,260,260,670,1,M,Masters 1,83,Single-ply,SBD,
János Geerhardt,SG Randersacker,1967,83.46,190,205,212.5,212.5,122.5,130,137.5,137.5,220,235,245,245,595,2,M,Masters 2,93,Single-ply,SBD,
Markus Olt,AC 1888 Marburg e.V.,1978,86.92,165,172.5,180,180,100,-125,-127.5,100,-190,190,205,205,485,3,M,Masters 1,93,Single-ply,SBD,
Andreas Staude,TSV Katzwang 05,1979,88.9,195,215,225,225,142.5,147.5,152.5,152.5,240,250,257.5,257.5,635,2,M,Masters 1,93,Single-ply,SBD,
Michael Scholz,SC Oberölsbach,2000,89.22,245,260,275,275,120,130,135,135,225,245,252.5,252.5,662.5,2,M,Juniors,93,Single-ply,SBD,
Max Lochschmidt,AC Siegfried Darmstadt e.V.,1983,89.76,-330,330,-337.5,330,227.5,232.5,237.5,237.5,-305,305,-315,305,872.5,1,M,Open,93,Single-ply,SBD,
Thomas Lehmeier,SC Oberölsbach,1991,90.27,-290,-295,300,300,160,167.5,177.5,177.5,250,-265,265,265,742.5,3,M,Open,93,Single-ply,SBD,
Gustav Waidmann,HSV Weimar,1953,91.1,210,-230,230,230,-140,140,150,150,200,220,-230,220,600,1,M,Masters 3,93,Single-ply,SBD,
Jean Paul Heidkamp,Kraftsport Colonia,2002,91.65,220,230,-237.5,230,127.5,-135,135,135,-210,210,-250,210,575,1,M,Youth,93,Single-ply,SBD,
Ronny Schröder,FSV Blau-Weiß Bergen e.V.,1979,91.69,220,235,247.5,247.5,185,190,195,195,240,260,270,270,712.5,1,M,Masters 1,93,Single-ply,SBD,
Patrick Ledermann,TSG 1885 Augsburg-Lechhausen e.V.,1998,91.79,260,275,-280,275,-200,-200,-200,-200,-250,,,,,DQ,M,Juniors,93,Single-ply,SBD,
Alex Hochlov,KSV Renchtal,1989,91.89,252.5,267.5,-280,267.5,205,-215,-215,205,230,-242.5,-245,230,702.5,4,M,Open,93,Single-ply,SBD,
Andreas Schmid,ASV 1897 Neu-Ulm e.V.,1991,92.27,295,305,-315,305,175,187.5,200,200,250,270,-285,270,775,2,M,Open,93,Single-ply,SBD,
Julian Abromeit,AC Bavaria Forchheim 1908 e.V.,2000,92.44,215,227.5,235,235,140,150,-160,150,245,260,265,265,650,3,M,Juniors,93,Single-ply,SBD,
Guido Nieland,Athletik Club 1892 Weinheim e. V.,1970,92.56,252.5,-265,-265,252.5,192.5,200,-205,200,230,247.5,-260,247.5,700,1,M,Masters 2,93,Single-ply,SBD,
Nikolai Lorenz,Athletik Club 1892 Weinheim e. V.,1985,92.64,245,252.5,257.5,257.5,-215,215,-225,215,230,-245,-245,230,702.5,5,M,Open,93,Single-ply,SBD,
Vincent Opitz,VfB Klötze 07,2000,92.99,225,235,-245,235,215,-225,-225,215,220,227.5,232.5,232.5,682.5,1,M,Juniors,93,Single-ply,SBD,
Tim Gier,KSV Renchtal,2002,93,250,-270,-270,250,-162.5,-162.5,-162.5,,-210,,,,,DQ,M,Youth,93,Single-ply,SBD,
Mario Schnurr,KSV Renchtal,1966,95.51,280,295,-302.5,295,192.5,200,-205,200,260,275,285,285,780,1,M,Masters 2,105,Single-ply,SBD,
Peer Hänsicke,SV Kraft Eberswalde e.V.,1961,97.43,190,200,,200,-150,150,-230,150,180,200,210,210,560,3,M,Masters 2,105,Single-ply,SBD,
Drago Siegert,AC Rüdersdorf e.V.,2004,98.28,140,150,155,155,100,-107.5,107.5,107.5,150,160,170,170,432.5,2,M,Youth,105,Single-ply,SBD,
René Ullerich,Gostorfer SV e.V.,1978,99.5,290,310,,310,-190,190,-205,190,270,280,-285,280,780,1,M,Masters 1,105,Single-ply,SBD,
Tobias Bugert,Athletik Club 1892 Weinheim e. V.,1978,100.74,240,247.5,252.5,252.5,200,210,-215,210,230,250,-272.5,250,712.5,4,M,Masters 1,105,Single-ply,SBD,
Patrick Lösel,VfB Klötze 07,2000,101.49,300,-310,-320,300,-200,205,212.5,212.5,270,280,-292.5,280,792.5,1,M,Juniors,105,Single-ply,SBD,
Stefan Kapplinghaus,Powerlifting Duisburg e.V.,1956,102.1,120,130,-135,130,102.5,-107.5,-107.5,102.5,170,180,-187.5,180,412.5,1,M,Masters 3,105,Single-ply,SBD,
Eric Stockdreher,HAV 77 e.V.,1996,102.82,265,275,-280,275,185,192.5,200,200,230,245,-252.5,245,720,2,M,Open,105,Single-ply,SBD,
Fabian Haberer,AC Bavaria Forchheim 1908 e.V.,1999,103.08,-220,225,-245,225,135,142.5,-150,142.5,210,220,230,230,597.5,3,M,Juniors,105,Single-ply,SBD,
Christian Flueras,Sanssouci Gym e. V. Potsdam,1996,103.36,-300,-300,-315,,255,260,-275,260,250,265,282.5,282.5,,DQ,M,Open,105,Single-ply,SBD,
Oleksandr Sharov,KSV-Lippe-Bad-Salzuflen,1964,103.64,225,240,-250,240,180,-187.5,,180,225,235,245,245,665,2,M,Masters 2,105,Single-ply,SBD,
Norbert Kropf,AC Bavaria Forchheim 1908 e.V.,1978,104.14,220,230,240,240,170,180,187.5,187.5,220,235,-242.5,235,662.5,5,M,Masters 1,105,Single-ply,SBD,
Thomas Leffers,Turnverein Papenburg v. 1896 e.V.,1977,104.15,255,270,-275,270,215,220,-225,220,250,272.5,-292.5,272.5,762.5,2,M,Masters 1,105,Single-ply,SBD,
Thorsten Thenhart,Powerlifting Würzburg e.V.,1975,104.24,-275,-275,275,275,190,200,210,210,235,242.5,250,250,735,3,M,Masters 1,105,Single-ply,SBD,
Marcel Vitz,KSV Essen 1888 e.V.,1992,104.27,-342.5,-342.5,-342.5,,225,230,-237.5,230,270,-285,-290,270,,DQ,M,Open,105,Single-ply,SBD,
Simon Bausewein,SG Randersacker,1997,104.66,-275,-275,275,275,180,185,-190,185,240,250,257.5,257.5,717.5,2,M,Juniors,105,Single-ply,SBD,
Lennart Alber,VfB Klötze 07,2002,104.8,-250,-250,250,250,135,145,150,150,215,227.5,235,235,635,1,M,Youth,105,Single-ply,SBD,
Martin Lange,SV Motor Barth e.V.,1987,104.99,335,-350,-350,335,245,260,275,275,290,305,327.5,327.5,937.5,1,M,Open,105,Single-ply,SBD,
Sven Lorenz,STC Bavaria 20 Landshut,1979,105.32,170,190,-225,190,160,170,180,180,160,180,190,190,560,3,M,Masters 1,120,Single-ply,SBD,
Alexander Geitner,KSV Renchtal,1978,107.74,210,-260,260,260,160,175,-182.5,175,260,280,295,295,730,1,M,Masters 1,120,Single-ply,SBD,
Till Kruse,SV Quitt Ankum e.V. 1919,2001,110.31,-285,-295,295,295,195,202.5,-207.5,202.5,-262.5,-262.5,-262.5,,,DQ,M,Juniors,120,Single-ply,SBD,
Peter Herteux,Fitboxcamp Powerlifting e.V. Lohr am Main,1968,110.68,170,-180,,170,160,170,-180,170,190,205,,205,545,1,M,Masters 2,120,Single-ply,SBD,
Krystian Slosarek,Todtglüsinger Sportverein von 1930 e.V.,1958,114.97,205,215,-225,215,-175,-175,-175,-175,-205,,,,,DQ,M,Masters 3,120,Single-ply,SBD,
Christian Lamper,ESV München-Neuaubing,1995,116.84,-327.5,-335,-340,-327.5,245,-250,250,250,250,270,280,280,,DQ,M,Open,120,Single-ply,SBD,
Dominik Pahl,Schwerathletik Verein Erfurt e.V.,1992,117.74,-365,-365,-365,-365,-260,,,,-300,,,,,DQ,M,Open,120,Single-ply,SBD,
Marcel Benzler,Fitboxcamp Powerlifting e.V. Lohr am Main,1974,117.96,215,225,235,235,-145,150,155,155,200,220,-230,220,610,2,M,Masters 1,120,Single-ply,SBD,
Armin Ehinger,Corpus Fitness Weightplayers 1999 e.V.,1957,118.9,-215,-215,-215,,-160,-160,,,,,,,,DQ,M,Masters 3,120,Single-ply,SBD,
Stefan Rzehak,KSV Essen 1888 e.V.,1991,119.43,-320,320,-330,320,150,-227.5,-227.5,150,290,-320,-320,290,760,1,M,Open,120,Single-ply,SBD,
Harald Paul,FSV Blau-Weiß Bergen e.V.,1954,126.66,-175,-175,175,175,140,150,160,160,175,,,175,510,1,M,Masters 3,120+,Single-ply,SBD,
Udo Thielking,AC Power Elite Haiger e.V.,1961,129.87,220,235,,235,-200,200,-205,200,220,235,245,245,680,1,M,Masters 2,120+,Single-ply,SBD,
Sven Lange,SV Motor Barth e.V.,1980,130.28,250,270,-280,270,260,-270,-270,260,225,-245,-260,225,755,1,M,Masters 1,120+,Single-ply,SBD,
Matthias Weber,Athletik Club 1892 Weinheim e. V.,1985,132.44,-265,-265,265,265,140,155,,155,180,200,,200,620,2,M,Open,120+,Single-ply,SBD,
Kevin Jäger,AC Siegfried Darmstadt e.V.,1995,134.1,345,-360,370,370,330,350,-400,350,280,-295,-300,280,1000,1,M,Open,120+,Single-ply,SBD,
Dominic Schönfeld,SV 1919 Grimma Abt. Kraftsport,1999,143.63,235,-250,,235,165,-170,-170,165,170,,,170,570,1,M,Juniors,120+,Single-ply,SBD,
Jan Grigat,VfB Klötze 07,1993,182.6,-285,-285,-300,,-220,,,,-240,,,,,DQ,M,Open,120+,Single-ply,SBD,
