Name,WeightClassKg,Division,AgeRange,Sex,Age,Bench1Kg,Bench2Kg,Bench3Kg,Bench4Kg,Best3BenchKg,Deadlift1Kg,Best3DeadliftKg,Deadlift4Kg,TotalKg,Event,Equipment,Place,Country,BodyweightKg
Bobby Sanders,56,Masters 40-46,40-46,M,,,,,,112.5,,,,112.5,B,Multi-ply,1,,
Daniel Winslow,75,Masters 40-46,40-46,M,,,,,,140,,,,140,B,Multi-ply,1,,
V. Ledford,75,Masters 40-46,40-46,M,,,,,,135,,,,135,B,Multi-ply,2,,
R. High,75,Masters 40-46,40-46,M,,,,,,122.5,,,,122.5,B,Multi-ply,3,,
Byron Beebe,82.5,Masters 40-46,40-46,M,,,,,,197.5,,,,197.5,B,Multi-ply,1,,
Bob Levering,82.5,Masters 40-46,40-46,M,,,,,,195,,,,195,B,Multi-ply,2,,
B. Cox,82.5,Masters 40-46,40-46,M,,,,,,165,,,,165,B,Multi-ply,3,,
Jeff Jones,82.5,Masters 40-46,40-46,M,,,,,,,,,,,B,Multi-ply,DQ,,
Alan Traylor,82.5,Masters 40-46,40-46,M,,,,,,,,,,,B,Multi-ply,DQ,,
George Herring,90,Masters 40-46,40-46,M,,,,,,225,,,,225,B,Multi-ply,1,,
Keith Kanemoto,90,Masters 40-46,40-46,M,,,,,,217.5,,,,217.5,B,Multi-ply,2,,
Fil Dena III,90,Masters 40-46,40-46,M,,,,,,187.5,,,,187.5,B,Multi-ply,3,,
Paul Radmilovich,90,Masters 40-46,40-46,M,,,,,,162.5,,,,162.5,B,Multi-ply,4,,
D. Sperry,90,Masters 40-46,40-46,M,,,,,,162.5,,,,162.5,B,Multi-ply,5,,
David Bertier,90,Masters 40-46,40-46,M,,,,,,140,,,,140,B,Multi-ply,6,,
R. Reynolds,90,Masters 40-46,40-46,M,,,,,,140,,,,140,B,Multi-ply,7,,
D. Gomez,90,Masters 40-46,40-46,M,,,,,,122.5,,,,122.5,B,Multi-ply,8,,
Buddy McKee,100,Masters 40-46,40-46,M,,,,,,172.5,,,,172.5,B,Multi-ply,1,,
Paul Wondra,100,Masters 40-46,40-46,M,,,,,,167.5,,,,167.5,B,Multi-ply,2,,
Larry Benner,100,Masters 40-46,40-46,M,,,,,,155,,,,155,B,Multi-ply,3,,
Joe Harms,110,Masters 40-46,40-46,M,,,,,,220,,,,220,B,Multi-ply,1,,
Rich Ludlam,110,Masters 40-46,40-46,M,,,,,,205,,,,205,B,Multi-ply,2,,
Al Dawson,110,Masters 40-46,40-46,M,,,,,,185,,,,185,B,Multi-ply,3,,
C. Warrick,110,Masters 40-46,40-46,M,,,,,,182.5,,,,182.5,B,Multi-ply,4,,
Arthur Clayton,110,Masters 40-46,40-46,M,,,,,,182.5,,,,182.5,B,Multi-ply,5,,
John LaGrill,110,Masters 40-46,40-46,M,,,,,,172.5,,,,172.5,B,Multi-ply,6,,
Carroll Moon,125,Masters 40-46,40-46,M,,,,,,252.5,,,,252.5,B,Multi-ply,1,,
Mike Lutz,125,Masters 40-46,40-46,M,,,,,,220,,,,220,B,Multi-ply,2,,
Paul Ratsch,125,Masters 40-46,40-46,M,,,,,,205,,,,205,B,Multi-ply,3,,
Kurt Sacher,125,Masters 40-46,40-46,M,,,,,,205,,,,205,B,Multi-ply,4,,
B. Smith,125,Masters 40-46,40-46,M,,,,,,202.5,,,,202.5,B,Multi-ply,5,,
Frank Sondgeroth,125,Masters 40-46,40-46,M,,,,,,182.5,,,,182.5,B,Multi-ply,6,,
Bill Gillespie,140,Masters 40-46,40-46,M,,287.5,,,,287.5,,,,287.5,B,Multi-ply,1,,
Cyril Lewis,140,Masters 40-46,40-46,M,,,,,,247.5,,,,247.5,B,Multi-ply,2,,
Steve Khader,140,Masters 40-46,40-46,M,,,,,,205,,,,205,B,Multi-ply,3,,
Tom Manno,140,Masters 40-46,40-46,M,,-305,,,,,,,,,B,Multi-ply,DQ,,
Art Ramsey,140+,Masters 40-46,40-46,M,,,,,,257.5,,,,257.5,B,Multi-ply,1,,
Randy Young,140+,Masters 40-46,40-46,M,,,,,,235,,,,235,B,Multi-ply,2,,
P. Benvin,140+,Masters 40-46,40-46,M,,,,,,130,,,,130,B,Multi-ply,3,,
David Chase,140+,Masters 40-46,40-46,M,,,,,,,,,,,B,Multi-ply,DQ,,
Gary Bobrovitz,60,Masters 47-53,47-53,M,,,,,,115,,,,115,B,Multi-ply,1,Canada,
Home Shivaie,60,Masters 47-53,47-53,M,,,,,,97.5,,,,97.5,B,Multi-ply,2,,
Randall Wrye,67.5,Masters 47-53,47-53,M,,,,,,132.5,,,,132.5,B,Multi-ply,1,,
Alfredo Evangelista,75,Masters 47-53,47-53,M,,,,,,175,,,,175,B,Multi-ply,1,,
Richard Hagedorn,82.5,Masters 47-53,47-53,M,,,,,,152.5,,,,152.5,B,Multi-ply,1,,
Jamey Mauldin,82.5,Masters 47-53,47-53,M,,,,,,140,,,,140,B,Multi-ply,2,,
Michel Rioland,82.5,Masters 47-53,47-53,M,,,,,,115,,,,115,B,Multi-ply,3,France,
Tom Gonnering,90,Masters 47-53,47-53,M,,,,,,187.5,,,,187.5,B,Multi-ply,1,,
Warren Orbaugh,90,Masters 47-53,47-53,M,,,,,,182.5,,,,182.5,B,Multi-ply,2,,
Rainer Gessmann,90,Masters 47-53,47-53,M,,,,,,145,,,,145,B,Multi-ply,3,Germany,
Mick Stevens,90,Masters 47-53,47-53,M,,,,,,135,,,,135,B,Multi-ply,4,,
Ronald Proctor,90,Masters 47-53,47-53,M,,,,,,130,,,,130,B,Multi-ply,5,,
T. Zwolinski,90,Masters 47-53,47-53,M,,,,,,115,,,,115,B,Multi-ply,6,,
Rocky Gingg,100,Masters 47-53,47-53,M,,,,,,220,,,,220,B,Multi-ply,1,,
Steve Ramey,100,Masters 47-53,47-53,M,,,,,,220,,,,220,B,Multi-ply,2,,
Donald Madere,100,Masters 47-53,47-53,M,,,,,,182.5,,,,182.5,B,Multi-ply,3,,
Jon Wolbers,100,Masters 47-53,47-53,M,,,,,,167.5,,,,167.5,B,Multi-ply,4,Canada,
David Martinez,100,Masters 47-53,47-53,M,,,,,,165,,,,165,B,Multi-ply,5,,
Greg McCoy,110,Masters 47-53,47-53,M,,,,,,207.5,,,,207.5,B,Multi-ply,1,,
Roger Nelson,110,Masters 47-53,47-53,M,,,,,,205,,,,205,B,Multi-ply,2,,
Patrick Fay,110,Masters 47-53,47-53,M,,,,,,165,,,,165,B,Multi-ply,3,,
R. Marchant,110,Masters 47-53,47-53,M,,,,,,157.5,,,,157.5,B,Multi-ply,4,,
Mike Moore #2,125,Masters 47-53,47-53,M,,,,,,180,,,,180,B,Multi-ply,1,,
Leo Contreras,125,Masters 47-53,47-53,M,,,,,,177.5,,,,177.5,B,Multi-ply,2,,
ZB Wright,125,Masters 47-53,47-53,M,,,,,,155,,,,155,B,Multi-ply,3,,
Frank Beeler,140,Masters 47-53,47-53,M,,,,,,240,,,,240,B,Multi-ply,1,Switzerland,
Bruce Sabin,140,Masters 47-53,47-53,M,,,,,,210,,,,210,B,Multi-ply,2,,
Tim Myers,140,Masters 47-53,47-53,M,,,,,,167.5,,,,167.5,B,Multi-ply,3,,
Lorenzo Barrett,140+,Masters 47-53,47-53,M,,,,,,192.5,,,,192.5,B,Multi-ply,1,,
Keith Ward,140+,Masters 47-53,47-53,M,,,,,,75,,,,75,B,Multi-ply,2,,
Stefan Lemire,75,Masters 54-60,54-60,M,,,,,,132.5,,,,132.5,B,Multi-ply,1,,
Larry Cardon,82.5,Masters 54-60,54-60,M,,,,,170,167.5,,,,167.5,B,Multi-ply,1,,
Rich Tsutsui,82.5,Masters 54-60,54-60,M,,,,,170,167.5,,,,167.5,B,Multi-ply,2,,
Roberto Contreras,82.5,Masters 54-60,54-60,M,,,,,,145,,,,145,B,Multi-ply,3,,
S. Hoffner,82.5,Masters 54-60,54-60,M,,,,,,145,,,,145,B,Multi-ply,4,,
Jerry McCamman,82.5,Masters 54-60,54-60,M,,,,,,140,,,,140,B,Multi-ply,5,,
F. Isernio,82.5,Masters 54-60,54-60,M,,,,,,137.5,,,,137.5,B,Multi-ply,6,,
Ron Matheson,90,Masters 54-60,54-60,M,,,,,,170,,,,170,B,Multi-ply,1,,
Daniel Hawkinson,90,Masters 54-60,54-60,M,,,,,,167.5,,,,167.5,B,Multi-ply,2,,
Jim Snodgrass,90,Masters 54-60,54-60,M,,,,,,145,,,,145,B,Multi-ply,3,,
Ritchie Creevy,90,Masters 54-60,54-60,M,,,,,,142.5,,,,142.5,B,Multi-ply,4,,
Tom Haggenmiller,90,Masters 54-60,54-60,M,,,,,,137.5,,,,137.5,B,Multi-ply,5,,
Bill Sekermestrovich,100,Masters 54-60,54-60,M,,,,,,202.5,,,,202.5,B,Multi-ply,1,,
Jim Parham,100,Masters 54-60,54-60,M,,,,,,167.5,,,,167.5,B,Multi-ply,2,,
Mac Urrutia,100,Masters 54-60,54-60,M,,,,,,165,,,,165,B,Multi-ply,3,,
Flip Silva Sr,100,Masters 54-60,54-60,M,,,,,,125,,,,125,B,Multi-ply,4,,
G. Grant,100,Masters 54-60,54-60,M,,,,,,117.5,,,,117.5,B,Multi-ply,5,,
Daniel Smith III,110,Masters 54-60,54-60,M,,,,,,185,,,,185,B,Multi-ply,1,,
Mac Pope,110,Masters 54-60,54-60,M,,,,,,165,,,,165,B,Multi-ply,2,,
George Nelson,125,Masters 54-60,54-60,M,,245,-260,,,245,,,,245,B,Multi-ply,1,,
Colin Bonneau,125,Masters 54-60,54-60,M,,,,,,212.5,,,,212.5,B,Multi-ply,2,Canada,
Ed Acey,125,Masters 54-60,54-60,M,,,,,,195,,,,195,B,Multi-ply,3,,
Eldon Olson,125,Masters 54-60,54-60,M,,,,,,185,,,,185,B,Multi-ply,4,,
Pedro Velazco,125,Masters 54-60,54-60,M,,,,,,185,,,,185,B,Multi-ply,5,Guatemala,
T. Lucas,125,Masters 54-60,54-60,M,,,,,,137.5,,,,137.5,B,Multi-ply,6,,
Robert O. Smith,140,Masters 54-60,54-60,M,,,,,,195,,,,195,B,Multi-ply,1,Canada,
Don James,140+,Masters 54-60,54-60,M,,,,,,205,,,,205,B,Multi-ply,1,,
Larry Vincent,67.5,Masters 61-67,61-67,M,,,,,130,122.5,,,,122.5,B,Multi-ply,1,,
Richard Gidcumb,67.5,Masters 61-67,61-67,M,,,,,,100,,,,100,B,Multi-ply,2,,
George Johnson,75,Masters 61-67,61-67,M,,,,,,145,,,,145,B,Multi-ply,1,,
Gerard Boucher,75,Masters 61-67,61-67,M,,,,,,137.5,,,,137.5,B,Multi-ply,2,,
Richard Abbott,75,Masters 61-67,61-67,M,65,,,,,102.5,,,,102.5,B,Multi-ply,3,,
Rudy Lozano,82.5,Masters 61-67,61-67,M,,,,,162.5,160,,,,160,B,Multi-ply,1,,
Roy Guidry,82.5,Masters 61-67,61-67,M,,,,,,147.5,,,,147.5,B,Multi-ply,2,,
Robert Withers,82.5,Masters 61-67,61-67,M,,,,,,110,,,,110,B,Multi-ply,3,Australia,
Bernie Miller,90,Masters 61-67,61-67,M,,,,,,137.5,,,,137.5,B,Multi-ply,1,,
J. Gladson,90,Masters 61-67,61-67,M,,,,,,122.5,,,,122.5,B,Multi-ply,2,,
Harold Smith,100,Masters 61-67,61-67,M,,,,,,150,,,,150,B,Multi-ply,1,,
Bob Bassman,100,Masters 61-67,61-67,M,,,,,,145,,,,145,B,Multi-ply,2,,
Richard Yoshida,100,Masters 61-67,61-67,M,,,,,,140,,,,140,B,Multi-ply,3,,
Roger Kunz,100,Masters 61-67,61-67,M,,,,,,127.5,,,,127.5,B,Multi-ply,4,,
Ken Anderson,110,Masters 61-67,61-67,M,,,,,,195,,,,195,B,Multi-ply,1,,
Larry Sandberg,110,Masters 61-67,61-67,M,,,,,,185,,,,185,B,Multi-ply,2,,
Bob Kehl,110,Masters 61-67,61-67,M,,,,,,182.5,,,,182.5,B,Multi-ply,3,,
A. Van Buskirk,110,Masters 61-67,61-67,M,,,,,,152.5,,,,152.5,B,Multi-ply,4,,
Danny Herrera,125,Masters 61-67,61-67,M,,,,,,192.5,,,,192.5,B,Multi-ply,1,,
Bill Isley,125,Masters 61-67,61-67,M,,,,,,155,,,,155,B,Multi-ply,2,,
Gary Johnson,140,Masters 61-67,61-67,M,,,,,,142.5,,,,142.5,B,Multi-ply,1,,
Robert Cortes,67.5,Masters 68-74,68-74,M,70,,,,,112.5,,,,112.5,B,Multi-ply,1,,
Andre Charbit,75,Masters 68-74,68-74,M,,,,,,112.5,,,,112.5,B,Multi-ply,1,France,
Joe Cavness,75,Masters 68-74,68-74,M,,,,,,95,,,,95,B,Multi-ply,2,,
Jim Schall,75,Masters 68-74,68-74,M,,,,,,92.5,,,,92.5,B,Multi-ply,3,,
M. Garry,75,Masters 68-74,68-74,M,,,,,,,,,,,B,Multi-ply,DQ,,
R. Phillips,82.5,Masters 68-74,68-74,M,,,,,,110,,,,110,B,Multi-ply,1,,
Joe Cantu,100,Masters 68-74,68-74,M,70,,,,,175,,,,175,B,Multi-ply,1,,92.99
Lyndle Taylor,100,Masters 68-74,68-74,M,,,,,,117.5,,,,117.5,B,Multi-ply,2,,91.63
Ernie Anderson,110,Masters 68-74,68-74,M,68,,,,,180,,,,180,B,Multi-ply,1,,
J. Peters,110,Masters 68-74,68-74,M,,,,,,105,,,,105,B,Multi-ply,2,,
Arthur Whinston,67.5,Masters 75-79,75-79,M,77,,,,,47.5,,,,47.5,B,Multi-ply,1,,
Sonny Ronolo,75,Masters 75-79,75-79,M,78,,,,,137.5,,,,137.5,B,Multi-ply,1,,73.03
D. Gibson,75,Masters 75-79,75-79,M,,,,,,80,,,,80,B,Multi-ply,2,,
Enrique Garcia,82.5,Masters 75-79,75-79,M,,,,,,87.5,,,,87.5,B,Multi-ply,1,Guatemala,
Bob Acosta,82.5,Masters 75-79,75-79,M,,,,,,80,,,,80,B,Multi-ply,2,,
Rex Monahan,90,Masters 75-79,75-79,M,,,,,,65,,,,65,B,Multi-ply,1,,
Eugene L Miranda,100,Masters 75-79,75-79,M,,,,,,102.5,,,,102.5,B,Multi-ply,1,,
Richard Turner #2,100,Masters 75-79,75-79,M,,,,,,95,,,,95,B,Multi-ply,2,,
Herb Brandt,110,Masters 75-79,75-79,M,,,,,,100,,,,100,B,Multi-ply,1,,
Cal Davis,125,Masters 75-79,75-79,M,,,,,,105,,,,105,B,Multi-ply,1,,
AJ Agamao,75,Submasters 34-39,34-39,M,,,,,,192.5,,,,192.5,B,Multi-ply,1,,
Steve Ward,75,Submasters 34-39,34-39,M,,,,,,190,,,,190,B,Multi-ply,2,,
Jose Marin,82.5,Submasters 34-39,34-39,M,,,,,,187.5,,,,187.5,B,Multi-ply,1,,
Brian Baertlein,82.5,Submasters 34-39,34-39,M,,,,,,185,,,,185,B,Multi-ply,2,,
Edgar Bravo,82.5,Submasters 34-39,34-39,M,,,,,,185,,,,185,B,Multi-ply,3,Guatemala,
Johnny Hernandez,90,Submasters 34-39,34-39,M,,,,,,205,,,,205,B,Multi-ply,1,,
Troy Weippert,90,Submasters 34-39,34-39,M,,,,,,170,,,,170,B,Multi-ply,2,,
M. Dees,90,Submasters 34-39,34-39,M,,,,,,137.5,,,,137.5,B,Multi-ply,3,,
Kenneth Millrany,100,Submasters 34-39,34-39,M,,,,,,210,,,,210,B,Multi-ply,1,,
Roderick Rogers,100,Submasters 34-39,34-39,M,,,,,,190,,,,190,B,Multi-ply,2,,
Mark Hatfield,100,Submasters 34-39,34-39,M,,,,,,165,,,,165,B,Multi-ply,3,,
G. Mitchell,100,Submasters 34-39,34-39,M,,,,,,,,,,,B,Multi-ply,DQ,,
Jimmee Fullerton,110,Submasters 34-39,34-39,M,,,,,,240,,,,240,B,Multi-ply,1,,
Russ Kitani,110,Submasters 34-39,34-39,M,,,,,,237.5,,,,237.5,B,Multi-ply,2,,
Gary Lands,110,Submasters 34-39,34-39,M,,,,,,215,,,,215,B,Multi-ply,3,,
Kevin Hahn,110,Submasters 34-39,34-39,M,,,,,,207.5,,,,207.5,B,Multi-ply,4,,
Rick Padgett,110,Submasters 34-39,34-39,M,,,,,,200,,,,200,B,Multi-ply,5,,
John Stewart,125,Submasters 34-39,34-39,M,,,,,,272.5,,,,272.5,B,Multi-ply,1,,
Kendall Walden,125,Submasters 34-39,34-39,M,,,,,,265,,,,265,B,Multi-ply,2,,
Jaime Tovar,125,Submasters 34-39,34-39,M,,,,,,227.5,,,,227.5,B,Multi-ply,3,,
Todd Christensen,125,Submasters 34-39,34-39,M,,,,,,205,,,,205,B,Multi-ply,4,,
William Pontius,125,Submasters 34-39,34-39,M,,,,,,190,,,,190,B,Multi-ply,5,,
Jim Cunningham,140,Submasters 34-39,34-39,M,,,,,,272.5,,,,272.5,B,Multi-ply,1,,
Julian Erevia,140,Submasters 34-39,34-39,M,,,,,,210,,,,210,B,Multi-ply,2,,
Steve Wong,140,Submasters 34-39,34-39,M,,,,,,,,,,,B,Single-ply,DQ,,
Dave Marchant,140+,Submasters 34-39,34-39,M,,,,,,252.5,,,,252.5,B,Multi-ply,1,,
Thomas McKinney #1,140+,Submasters 34-39,34-39,M,,,,,,222.5,,,,222.5,B,Multi-ply,2,,
Randall Wrye,67.5,Class 1,,M,,,,,,132.5,,,,132.5,B,Multi-ply,1,,
Eric Nahorniak,67.5,Class 1,,M,,,,,,130,,,,130,B,Multi-ply,2,,
Jon Shapiro,67.5,Class 1,,M,,,,,,122.5,,,,122.5,B,Multi-ply,3,,
Richard Gidcumb,67.5,Class 1,,M,,,,,,100,,,,100,B,Multi-ply,4,,
Gerald Figard,75,Class 1,,M,,,,,,92.5,,,,92.5,B,Multi-ply,1,,
A. Takayoshi,75,Class 1,,M,,,,,,,,,,,B,Multi-ply,DQ,,
Nathan Nelson,82.5,Class 1,,M,,,,,,172.5,,,,172.5,B,Multi-ply,1,,
R. Eley,82.5,Class 1,,M,,,,,,162.5,,,,162.5,B,Multi-ply,2,,
Greg Stephens,90,Class 1,,M,,,,,,190,,,,190,B,Multi-ply,1,,
Steve Ughe,90,Class 1,,M,,,,,,180,,,,180,B,Multi-ply,2,,
Brian Bishop #3,90,Class 1,,M,,,,,,177.5,,,,177.5,B,Multi-ply,3,,
Michael Rainey,90,Class 1,,M,,,,,,165,,,,165,B,Multi-ply,4,,
D. Gomez,90,Class 1,,M,,,,,,122.5,,,,122.5,B,Multi-ply,5,,
Steve Peña #1,100,Class 1,,M,,,,,,215,,,,215,B,Multi-ply,1,,
Joe Guerra,100,Class 1,,M,,,,,,187.5,,,,187.5,B,Multi-ply,2,,
John Boettger,100,Class 1,,M,,,,,,182.5,,,,182.5,B,Multi-ply,3,,
Joshua Schrag,100,Class 1,,M,,,,,,177.5,,,,177.5,B,Multi-ply,4,,
James Carter II,100,Class 1,,M,,,,,,175,,,,175,B,Multi-ply,5,,
Buddy McKee,100,Class 1,,M,,,,,,172.5,,,,172.5,B,Multi-ply,6,,
R. MacQuarrie,100,Class 1,,M,,,,,,170,,,,170,B,Multi-ply,7,,
J. Anthony,100,Class 1,,M,,,,,,167.5,,,,167.5,B,Multi-ply,8,,
J. DePalmer,100,Class 1,,M,,,,,,150,,,,150,B,Multi-ply,9,,
Kevin Hahn,110,Class 1,,M,,,,,,207.5,,,,207.5,B,Multi-ply,1,,
Rich Ludlam,110,Class 1,,M,,,,,,205,,,,205,B,Multi-ply,2,,
James Mozingo,110,Class 1,,M,,,,,,192.5,,,,192.5,B,Multi-ply,3,,
Ed Barnes,110,Class 1,,M,,,,,,190,,,,190,B,Multi-ply,4,,
Cody Colchado,110,Class 1,,M,,,,,,182.5,,,,182.5,B,Multi-ply,5,,
Gregg Ramsdell,110,Class 1,,M,,,,,,182.5,,,,182.5,B,Multi-ply,6,,
John LaGrill,110,Class 1,,M,,,,,,172.5,,,,172.5,B,Multi-ply,7,,
Steve Hendricks,125,Class 1,,M,,,,,,225,,,,225,B,Multi-ply,1,,
Mike Lutz,125,Class 1,,M,,,,,,220,,,,220,B,Multi-ply,2,,
Colin Bonneau,125,Class 1,,M,,,,,,212.5,,,,212.5,B,Multi-ply,3,Canada,
William Pontius,125,Class 1,,M,,,,,,190,,,,190,B,Multi-ply,4,,
A. Dilk,125,Class 1,,M,,,,,,185,,,,185,B,Multi-ply,5,,
Frank Sondgeroth,125,Class 1,,M,,,,,,182.5,,,,182.5,B,Multi-ply,6,,
Leo Contreras,125,Class 1,,M,,,,,,177.5,,,,177.5,B,Multi-ply,7,,
John Newman,140,Class 1,,M,,,,,,170,,,,170,B,Multi-ply,1,,
Stanley Mendez,60,Juniors 20-25,20-25,M,,,,,,112.5,,,,112.5,B,Multi-ply,1,,
Martin Cain,67.5,Juniors 20-25,20-25,M,,,,,,172.5,,,,172.5,B,Multi-ply,1,,
Taylor Tom,67.5,Juniors 20-25,20-25,M,,,,,172.5,167.5,,,,167.5,B,Multi-ply,2,,
Steve Newman,67.5,Juniors 20-25,20-25,M,,,,,,122.5,,,,122.5,B,Multi-ply,3,,
Bryan Bunn,75,Juniors 20-25,20-25,M,,,,,,155,,,,155,B,Multi-ply,1,,
Jonathan Tcruz,75,Juniors 20-25,20-25,M,,,,,,132.5,,,,132.5,B,Multi-ply,2,,
T. McKinney,75,Juniors 20-25,20-25,M,,,,,,100,,,,100,B,Multi-ply,3,,
Jeff Sussman,82.5,Juniors 20-25,20-25,M,,,,,,200,,,,200,B,Multi-ply,1,,
Greg Gibson,82.5,Juniors 20-25,20-25,M,,,,,,200,,,,200,B,Multi-ply,2,,
John Harris,82.5,Juniors 20-25,20-25,M,,,,,,130,,,,130,B,Multi-ply,3,,
T. Baisy,82.5,Juniors 20-25,20-25,M,,,,,,110,,,,110,B,Multi-ply,4,,
R. Harris,82.5,Juniors 20-25,20-25,M,,,,,,,,,,,B,Multi-ply,DQ,,
Ernie Mil-Homens,90,Juniors 20-25,20-25,M,,,,,,205,,,,205,B,Multi-ply,1,Canada,
Greg Stephens,90,Juniors 20-25,20-25,M,,,,,,190,,,,190,B,Multi-ply,2,,
Chad Matthews,90,Juniors 20-25,20-25,M,,,,,,187.5,,,,187.5,B,Multi-ply,3,,
Richard McKeefer,90,Juniors 20-25,20-25,M,,,,,,182.5,,,,182.5,B,Multi-ply,4,,
S. Thompson,90,Juniors 20-25,20-25,M,,,,,,182.5,,,,182.5,B,Multi-ply,5,,
K. Roberson,90,Juniors 20-25,20-25,M,,,,,,115,,,,115,B,Multi-ply,6,,
A. Bixler,90,Juniors 20-25,20-25,M,,,,,,85,,,,85,B,Multi-ply,7,,
N. Bruckner,90,Juniors 20-25,20-25,M,,,,,,,,,,,B,Multi-ply,DQ,,
Josh Wilkins,100,Juniors 20-25,20-25,M,,,,,,232.5,,,,232.5,B,Multi-ply,1,,
Phil Davi,100,Juniors 20-25,20-25,M,,,,,,227.5,,,,227.5,B,Multi-ply,2,,
Joshua Schrag,100,Juniors 20-25,20-25,M,,,,,,177.5,,,,177.5,B,Multi-ply,3,,
Jarred Loomis,100,Juniors 20-25,20-25,M,,,,,,,,,,,B,Multi-ply,DQ,,
Adrian Larsen,110,Juniors 20-25,20-25,M,,,,,,232.5,,,,232.5,B,Multi-ply,1,,
Tony Arterburn,110,Juniors 20-25,20-25,M,,,,,,217.5,,,,217.5,B,Multi-ply,2,,
Andrew Quiroz,110,Juniors 20-25,20-25,M,,,,,,215,,,,215,B,Multi-ply,3,,
Don Goldsworthy,110,Juniors 20-25,20-25,M,,,,,,212.5,,,,212.5,B,Multi-ply,4,,
Mike Womack #1,110,Juniors 20-25,20-25,M,,,,,,192.5,,,,192.5,B,Multi-ply,5,,
Jason Parman,125,Juniors 20-25,20-25,M,,,,,,220,,,,220,B,Multi-ply,1,,
Cody Sacher,125,Juniors 20-25,20-25,M,,,,,,190,,,,190,B,Multi-ply,2,,
J. Vereide,125,Juniors 20-25,20-25,M,,,,,,160,,,,160,B,Multi-ply,3,,
Toby Levers,125,Juniors 20-25,20-25,M,,,,,,,,,,,B,Multi-ply,DQ,,
Jerry Pritchett,140,Juniors 20-25,20-25,M,,,,,,197.5,,,,197.5,B,Multi-ply,1,,
Trent Corey,44,Teen 13-15,13-15,M,,,,,,50,,,,50,B,Multi-ply,1,,
Kevin Pennington,56,Teen 13-15,13-15,M,,,,,,62.5,,,,62.5,B,Multi-ply,1,,
B. Huffer,56,Teen 13-15,13-15,M,,,,,,30,,,,30,B,Multi-ply,2,,
Zach O'Quinn,60,Teen 13-15,13-15,M,,,,,,40,,,,40,B,Multi-ply,2,,
N. Worley,60,Teen 13-15,13-15,M,,,,,,60,,,,60,B,Multi-ply,1,,
Clayton Pinson,67.5,Teen 13-15,13-15,M,,,,,,75,,,,75,B,Multi-ply,1,,
N. Luttrell,67.5,Teen 13-15,13-15,M,,,,,,32.5,,,,32.5,B,Multi-ply,2,,
Andy Munsey,75,Teen 13-15,13-15,M,,,,,,72.5,,,,72.5,B,Multi-ply,1,,
D. Borchardt,75,Teen 13-15,13-15,M,,,,,,67.5,,,,67.5,B,Multi-ply,2,,
Adam Contreras #1,75,Teen 13-15,13-15,M,,,,,,60,,,,60,B,Multi-ply,3,,
M. Marlin,82.5,Teen 13-15,13-15,M,,,,,,65,,,,65,B,Multi-ply,1,,
James Perry #6,90,Teen 13-15,13-15,M,,,,,,82.5,,,,82.5,B,Multi-ply,1,,
Viktor Tovar,100,Teen 13-15,13-15,M,,,,,,92.5,,,,92.5,B,Multi-ply,1,,
Randall Griggs,44,Teen 16-19,16-19,M,,,,,82.5,77.5,,,,77.5,B,Multi-ply,1,,
Chuckie Snider,56,Teen 16-19,16-19,M,,,,,,115,,,,115,B,Multi-ply,1,,
Damian Lewis,60,Teen 16-19,16-19,M,,,,,,100,,,,100,B,Multi-ply,1,,
Josh Womack,60,Teen 16-19,16-19,M,,,,,,82.5,,,,82.5,B,Multi-ply,2,,
Damian Osgood,67.5,Teen 16-19,16-19,M,,,,,,140,,,,140,B,Multi-ply,1,,
L. Cray,67.5,Teen 16-19,16-19,M,,,,,,120,,,,120,B,Multi-ply,2,,
F. Jackson,67.5,Teen 16-19,16-19,M,,,,,,65,,,,65,B,Multi-ply,3,,
Paul Seaver,75,Teen 16-19,16-19,M,,,,,,147.5,,,,147.5,B,Multi-ply,1,,
Hayward Blake,75,Teen 16-19,16-19,M,,,,,,147.5,,,,147.5,B,Multi-ply,2,,
B. Pedroni,75,Teen 16-19,16-19,M,,,,,,,,,,,B,Multi-ply,DQ,,
Anthony Palombo,82.5,Teen 16-19,16-19,M,,,,,,155,,,,155,B,Multi-ply,1,,
Adrian Francis,82.5,Teen 16-19,16-19,M,,,,,,135,,,,135,B,Multi-ply,2,,
Michael Minahan,82.5,Teen 16-19,16-19,M,,,,,,115,,,,115,B,Multi-ply,3,,
Matthew Christie,90,Teen 16-19,16-19,M,,,,,,162.5,,,,162.5,B,Multi-ply,1,,
DeShaun Milliken,125,Teen 16-19,16-19,M,,,,,,235,,,,235,B,Multi-ply,1,,115.67
J. Davasher,125,Teen 16-19,16-19,M,,,,,,165,,,,165,B,Multi-ply,2,,
Matt Morvai,125,Teen 16-19,16-19,M,,,,,,80,,,,80,B,Multi-ply,3,,
Arnold Gonzales,140,Teen 16-19,16-19,M,,,,,,142.5,,,,142.5,B,Multi-ply,1,,
Bobby Sanders,56,Open,,M,,,,,,112.5,,,,112.5,B,Multi-ply,1,,
H. Carcia,60,Open,,M,,,,,,112.5,,,,112.5,B,Multi-ply,1,,
Stanley Mendez,60,Open,,M,,,,,,112.5,,,,112.5,B,Multi-ply,2,,
Evan Davidson,67.5,Open,,M,,,,,,172.5,,,,172.5,B,Multi-ply,1,,
Monte Hokoana,67.5,Open,,M,,,,,,160,,,,160,B,Multi-ply,2,,
Kom Phanekham,67.5,Open,,M,,,,,,155,,,,155,B,Multi-ply,3,,
Damian Osgood,67.5,Open,,M,,,,,,140,,,,140,B,Multi-ply,4,,
M. Rodriguez,67.5,Open,,M,,,,,,,,,,,B,Multi-ply,DQ,,
Jesse Romero,75,Open,,M,,,,,,160,,,,160,B,Multi-ply,1,,
V. Ledford,75,Open,,M,,,,,,135,,,,135,B,Multi-ply,2,,
Byron Beebe,82.5,Open,,M,,,,,,200,,,,200,B,Multi-ply,1,,
Corey Evans,82.5,Open,,M,,,,,,200,,,,200,B,Multi-ply,2,,
Jose Marin,82.5,Open,,M,,,,,,187.5,,,,187.5,B,Multi-ply,3,,
P. Thomas,82.5,Open,,M,,,,,,,,,,,B,Multi-ply,DQ,,
George Herring,90,Open,,M,,,,,,225,,,,225,B,Multi-ply,1,,
Hoss Rhoton,90,Open,,M,,,,,,217.5,,,,217.5,B,Multi-ply,2,,
Danny Soto,90,Open,,M,,,,,,182.5,,,,182.5,B,Multi-ply,3,,
Troy Weippert,90,Open,,M,,,,,,170,,,,170,B,Multi-ply,4,,
Mike Desrosiers,90,Open,,M,,,,,,,,,,,B,Multi-ply,DQ,,
Mike Ludovico,100,Open,,M,,,,,,250,,,,250,B,Multi-ply,1,,
Matt LaMarque,100,Open,,M,,,,,,242.5,,,,242.5,B,Multi-ply,2,,
Phil Davi,100,Open,,M,,,,,,227.5,,,,227.5,B,Multi-ply,3,,
T. Martin,100,Open,,M,,,,,,220,,,,220,B,Multi-ply,4,,
Roderick Rogers,100,Open,,M,,,,,,190,,,,190,B,Multi-ply,5,,
John Boettger,100,Open,,M,,,,,,182.5,,,,182.5,B,Multi-ply,6,,
Scott Burgess,100,Open,,M,,,,,,170,,,,170,B,Multi-ply,7,,
G. Mitchell,100,Open,,M,,,,,,,,,,,B,Multi-ply,DQ,,
Jarred Loomis,100,Open,,M,,,,,,,,,,,B,Multi-ply,DQ,,
Jason Jackson #7,110,Open,,M,,,,,,275,,,,275,B,Multi-ply,1,,108.41
Joe Raynor,110,Open,,M,,,,,,255,,,,255,B,Multi-ply,2,,
Jimmee Fullerton,110,Open,,M,,,,,,240,,,,240,B,Multi-ply,3,,
Gary Lands,110,Open,,M,,,,,,215,,,,215,B,Multi-ply,4,,
Andrew Quiroz,110,Open,,M,,,,,,215,,,,215,B,Multi-ply,5,,
Phillip Belone,110,Open,,M,,,,,,210,,,,210,B,Multi-ply,6,,
Roger Nelson,110,Open,,M,,,,,,205,,,,205,B,Multi-ply,7,,
G. Mitchell,110,Open,,M,,,,,,,,,,,B,Multi-ply,DQ,,
Tiny Meeker,125,Open,,M,,282.5,-310,-322.5,,282.5,,,,282.5,B,Single-ply,1,,
George Nelson,125,Open,,M,,245,-260,,,245,,,,245,B,Multi-ply,2,,
Patrick Holloway,125,Open,,M,,,,,,225,,,,225,B,Multi-ply,3,,
P. Marcoff,125,Open,,M,,,,,,192.5,,,,192.5,B,Multi-ply,4,,
Flip Silva Jr,125,Open,,M,,,,,,182.5,,,,182.5,B,Multi-ply,5,,
B. Stussy,125,Open,,M,,,,,,,,,,,B,Multi-ply,DQ,,
Bill Gillespie,140,Open,,M,,,,,,287.5,,,,287.5,B,Multi-ply,1,,
Jim Cunningham,140,Open,,M,,,272.5,-285,,272.5,,,,272.5,B,Multi-ply,2,,
Steve Khader,140,Open,,M,,,,,,205,,,,205,B,Multi-ply,3,,
Tom Manno,140,Open,,M,,-305,,,,,,,,,B,Multi-ply,DQ,,
Thomas McKinney #1,140+,Open,,M,,,,,,237.5,,,,237.5,B,Multi-ply,1,,
Andy Ellis,75,Law/Fire Open,,M,,,,,,160,,,,160,B,Multi-ply,1,,74.16
Mike Bivin,82.5,Law/Fire Open,,M,,,,,,115,,,,115,B,Multi-ply,1,,
Ed Sim,90,Law/Fire Open,,M,,,,,,215,,,,215,B,Multi-ply,1,,
Craig Palmer,90,Law/Fire Open,,M,,,,,,197.5,,,,197.5,B,Multi-ply,2,,
Richard McKeefer,90,Law/Fire Open,,M,,,,,,182.5,,,,182.5,B,Multi-ply,3,,
N. Bruckner,90,Law/Fire Open,,M,,,,,,,,,,,B,Multi-ply,DQ,,
Matt LaMarque,100,Law/Fire Open,,M,,,,,,242.5,,,,242.5,B,Multi-ply,1,,
Joe Guerra,100,Law/Fire Open,,M,,,,,,207.5,,,,207.5,B,Multi-ply,2,,
Zachary Clark,100,Law/Fire Open,,M,,,,,,190,,,,190,B,Multi-ply,3,,
E. Carvajal,100,Law/Fire Open,,M,,,,,,180,,,,180,B,Multi-ply,4,,
Jason Jackson #7,110,Law/Fire Open,,M,,,,,,275,,,,275,B,Multi-ply,1,,108.41
Frank Wakakuwa,110,Law/Fire Open,,M,,,,,,215,,,,215,B,Multi-ply,2,,
Phillip Belone,110,Law/Fire Open,,M,,,,,,210,,,,210,B,Multi-ply,3,,
A. Porter,110,Law/Fire Open,,M,,,,,,197.5,,,,197.5,B,Multi-ply,4,,
M. Smyser,110,Law/Fire Open,,M,,,,,,180,,,,180,B,Multi-ply,5,,
Flip Silva Jr,125,Law/Fire Open,,M,,,,,,182.5,,,,182.5,B,Multi-ply,1,,
Kevin Tashiro,125,Law/Fire Open,,M,,,,,,165,,,,165,B,Multi-ply,2,,
Tim Johnson,140,Law/Fire Open,,M,,,,,,175,,,,175,B,Multi-ply,1,,
AJ Agamao,75,Law/Fire Submasters 34-39,34-39,M,,,,,,192.5,,,,192.5,B,Multi-ply,1,,
Andy Ellis,75,Law/Fire Submasters 34-39,34-39,M,,,,,,160,,,,160,B,Multi-ply,2,,74.16
Ed Sim,90,Law/Fire Submasters 34-39,34-39,M,,,,,,215,,,,215,B,Multi-ply,1,,
Kenneth Millrany,100,Law/Fire Submasters 34-39,34-39,M,,,,,,210,,,,210,B,Multi-ply,1,,
Jaime Tovar,125,Law/Fire Submasters 34-39,34-39,M,,,,,,227.5,,,,227.5,B,Multi-ply,1,,
Dave Marchant,140+,Law/Fire Submasters 34-39,34-39,M,,,,,,252.5,,,,252.5,B,Multi-ply,1,,
Robert Straker,75,Law/Fire Masters 40-47,40-47,M,,,,,,92.5,,,,92.5,B,Multi-ply,1,,
Rudy Lopez,82.5,Law/Fire Masters 40-47,40-47,M,,,,,185,182.5,,,,182.5,B,Multi-ply,1,,
Craig Palmer,90,Law/Fire Masters 40-47,40-47,M,,,,,,197.5,,,,197.5,B,Multi-ply,1,,
Mike McKenzie,100,Law/Fire Masters 40-47,40-47,M,,,,,,207.5,,,,207.5,B,Multi-ply,1,,
Zachary Clark,100,Law/Fire Masters 40-47,40-47,M,,,,,,190,,,,190,B,Multi-ply,2,,
Jeff Jones,100,Law/Fire Masters 40-47,40-47,M,,,,,,187.5,,,,187.5,B,Multi-ply,3,,
Dwayne England,100,Law/Fire Masters 40-47,40-47,M,,,,,,150,,,,150,B,Multi-ply,4,,
Glen Ponder,110,Law/Fire Masters 40-47,40-47,M,,,,,,185,,,,185,B,Multi-ply,1,,
Arthur Clayton,110,Law/Fire Masters 40-47,40-47,M,,,,,,182.5,,,,182.5,B,Multi-ply,2,,
Walt Faulkner,125,Law/Fire Masters 40-47,40-47,M,,,,,,185,,,,185,B,Multi-ply,1,,
John Minahan,140,Law/Fire Masters 40-47,40-47,M,,,,,,245,,,,245,B,Multi-ply,1,,
David Martinez,100,Law/Fire Masters 48+,48-999,M,,,,,,165,,,,165,B,Multi-ply,1,,
Patrick Fay,110,Law/Fire Masters 48+,48-999,M,,,,,,165,,,,165,B,Multi-ply,1,,
Ed Acey,125,Law/Fire Masters 48+,48-999,M,,,,,,195,,,,195,B,Multi-ply,1,,
Eldon Olson,125,Law/Fire Masters 48+,48-999,M,,,,,,185,,,,185,B,Multi-ply,2,,
Pedro Velazco,125,Law/Fire Masters 48+,48-999,M,,,,,,185,,,,185,B,Multi-ply,3,Guatemala,
Bruce Sabin,140,Law/Fire Masters 48+,48-999,M,,,,,,210,,,,210,B,Multi-ply,1,,
B. Huffer,56,Disabled,,M,,,,,,30,,,,30,B,Multi-ply,1,,
Chard Ward,90,Disabled,,M,,,,,,127.5,,,,127.5,B,Multi-ply,1,,
Nick Sinardi,90,Disabled,,M,,,,,,110,,,,110,B,Multi-ply,2,,
Steve Peña #1,100,Disabled,,M,,,,,,215,,,,215,B,Multi-ply,1,,
Cody Colchado,110,Disabled,,M,,,,,185,182.5,,,,182.5,B,Multi-ply,1,,
Eric Janvier,60,,,M,,,,,,67.5,,,,67.5,B,Multi-ply,1,,
D. Morgan,60,,,M,,,,,,60,,,,60,B,Multi-ply,2,,
Jon Shapiro,67.5,,,M,,,,,,115,,,,115,B,Multi-ply,1,,
Brent Ruth,75,,,M,,,,,,95,,,,95,B,Multi-ply,1,,
D. Hodges,75,,,M,,,,,,65,,,,65,B,Multi-ply,2,,
M. McHugh,82.5,,,M,,,,,,87.5,,,,87.5,B,Multi-ply,1,,
A. Markham,82.5,,,M,,,,,,70,,,,70,B,Multi-ply,2,,
Anthony Belfils,82.5,,,M,,,,,,67.5,,,,67.5,B,Multi-ply,3,,
E. Greene,82.5,,,M,,,,,,40,,,,40,B,Multi-ply,4,,
J. Marchu,90,,,M,,,,,,87.5,,,,87.5,B,Multi-ply,1,,
A. Bixler,90,,,M,,,,,,85,,,,85,B,Multi-ply,2,,
L. Rivera,90,,,M,,,,,,77.5,,,,77.5,B,Multi-ply,3,,
Richard Dunning,90,,,M,,,,,,65,,,,65,B,Multi-ply,4,,
Anthony Johnson,100,,,M,,,,,,120,,,,120,B,Multi-ply,1,,
K. Dean,100,,,M,,,,,,105,,,,105,B,Multi-ply,2,,
Jeff Hybl,100,,,M,,,,,,85,,,,85,B,Multi-ply,3,,
J. Gonzales,100,,,M,,,,,,82.5,,,,82.5,B,Multi-ply,4,,
L. Henderson,125,,,M,,,,,,82.5,,,,82.5,B,Multi-ply,1,,
M. Uon,125,,,M,,,,,,80,,,,80,B,Multi-ply,2,,
Jock Mayes,140,,,M,,,,,,107.5,,,,107.5,B,Multi-ply,1,,
Emily Kubiak,48,Open,,F,,,,,,67.5,,,,67.5,B,Multi-ply,1,,
Lynda Christopher,52,Open,,F,,,,,,55,,,,55,B,Multi-ply,1,,
Susan Rinn,56,Open,,F,,,,,,105,,,,105,B,Multi-ply,1,,
Valerie Tyree,56,Open,,F,,,,,,95,,,,95,B,Multi-ply,2,,54.2
Maria Lewis,56,Open,,F,,,,,,77.5,,,,77.5,B,Multi-ply,3,,
Danna Snow,56,Open,,F,,,,,,65,,,,65,B,Multi-ply,4,,
Jerri-Lynn Lippert,60,Open,,F,,,,,,145,,,,145,B,Multi-ply,1,,
Christy Melton,60,Open,,F,,,,,,87.5,,,,87.5,B,Multi-ply,2,,
E. Moore,60,Open,,F,,,,,,75,,,,75,B,Multi-ply,3,,
Dru Amos,67.5,Open,,F,,,,,,77.5,,,,77.5,B,Multi-ply,1,,
Lyn Silbert,75,Open,,F,,,,,,122.5,,,,122.5,B,Multi-ply,1,,
Mary Jacobson,75,Open,,F,,,,,,115,,,,115,B,Multi-ply,2,,
Lisa Saleh,75,Open,,F,,,,,,75,,,,75,B,Multi-ply,3,,
Nikki Williams,75,Open,,F,,,,,,62.5,,,,62.5,B,Multi-ply,4,,
Joanne Warner,82.5,Open,,F,,,,,,145,,,,145,B,Multi-ply,1,,
Amy van der Pol,90+,Open,,F,,,,,,85,,,,85,B,Multi-ply,1,,
Rachel Malone,90+,Open,,F,,,,,,85,,,,85,B,Multi-ply,2,,
Michelle Williamson,90+,Open,,F,,,,,,,,,,,B,Multi-ply,DQ,,
Denise Ruff,56,Masters 40-46,40-46,F,,,,,,75,,,,75,B,Multi-ply,1,,
Leticia Rosales-Buie,56,Masters 40-46,40-46,F,,,,,,72.5,,,,72.5,B,Multi-ply,2,,54.88
Selina May,56,Masters 40-46,40-46,F,,,,,,67.5,,,,67.5,B,Multi-ply,3,,
Dru Amos,67.5,Masters 40-46,40-46,F,,,,,,77.5,,,,77.5,B,Multi-ply,1,,
Lyn Silbert,75,Masters 40-46,40-46,F,,,,,,122.5,,,,122.5,B,Multi-ply,1,,
Mary Jacobson,75,Masters 40-46,40-46,F,,,,,,115,,,,115,B,Multi-ply,2,,
Laura Feusi,90,Masters 40-46,40-46,F,,,,,,110,,,,110,B,Multi-ply,1,,
Susan Adkison,90+,Masters 40-46,40-46,F,,,,,,87.5,,,,87.5,B,Multi-ply,1,,
Karen Gordon,56,Law/Fire Open,,F,,,,,,77.5,,,,77.5,B,Multi-ply,1,,53.52
Heidi Rodriguez,52,Masters 47-53,47-53,F,,,,,,62.5,,,,62.5,B,Multi-ply,1,Guatemala,
Glenda Egan,52,Masters 47-53,47-53,F,,,,,,45,,,,45,B,Multi-ply,2,,
Louise Turner,60,Masters 47-53,47-53,F,,,,,,65,,,,65,B,Multi-ply,1,,
Rae Ballard,67.5,Masters 47-53,47-53,F,,,,,,75,,,,75,B,Multi-ply,1,,
Rosemary Harrington,75,Masters 47-53,47-53,F,,,,,,75,,,,75,B,Multi-ply,1,,
Claire Ashton-Heckathorn,82.5,Masters 47-53,47-53,F,50,,,,,57.5,,,,57.5,B,Multi-ply,1,,
Delia Chilgren,90+,Masters 47-53,47-53,F,,,,,,42.5,,,,42.5,B,Multi-ply,1,,
Carolyn Fay,90+,Masters 47-53,47-53,F,,,,,,35,,,,35,B,Multi-ply,2,,
Betty Lafferty,48,Masters 54-60,54-60,F,57,,,,,65,,,,65,B,Multi-ply,1,,
L. Hopkins,56,Masters 54-60,54-60,F,,,,,,37.5,,,,37.5,B,Multi-ply,1,,
Sharon O'Brien,67.5,Masters 54-60,54-60,F,,,,,,52.5,,,,52.5,B,Multi-ply,1,,
Sandi Butler,67.5,Masters 54-60,54-60,F,,,,,,50,,,,50,B,Multi-ply,2,,
Ruth Gladson,67.5,Masters 54-60,54-60,F,,,,,,47.5,,,,47.5,B,Multi-ply,3,New Zealand,
Joyce Hamblin,75,Masters 54-60,54-60,F,,,,,,75,,,,75,B,Multi-ply,1,,
Karen Polansky,82.5,Masters 54-60,54-60,F,,,,,,67.5,,,,67.5,B,Multi-ply,1,,
Dawn Ivey-Vick,90+,Masters 54-60,54-60,F,,,,,,40,,,,40,B,Multi-ply,1,,
Lolita Young,67.5,Masters 61-67,61-67,F,,,,,,52.5,,,,52.5,B,Multi-ply,1,,
Grace Cloninger,82.5,Masters 61-67,61-67,F,,,,,,52.5,,,,52.5,B,Multi-ply,1,,
Pauli Forquer,60,Masters 68-74,68-74,F,,,,,,37.5,,,,37.5,B,Multi-ply,1,,
Melicent Whinston,60,Masters 68-74,68-74,F,,,,,,32.5,,,,32.5,B,Multi-ply,2,,
Marcie Turner,67.5,Masters 68-74,68-74,F,69,,,,,55,,,,55,B,Multi-ply,1,,
Gloria Mighell,90,Masters 68-74,68-74,F,,,,,,37.5,,,,37.5,B,Multi-ply,1,,
Leticia Rosales-Buie,56,Law/Fire Masters 40-47,40-47,F,,,,,,72.5,,,,72.5,B,Multi-ply,1,,
Rae Ballard,67.5,Law/Fire Masters 48+,48-999,F,,,,,,75,,,,75,B,Multi-ply,1,,
Carolyn Fay,90+,Law/Fire Masters 48+,48-999,F,,,,,,35,,,,35,B,Multi-ply,1,,
Stephanie Henrise,52,Juniors 20-25,20-25,F,,,,,,42.5,,,,42.5,B,Multi-ply,1,,
Tamara Coulombe,56,Juniors 20-25,20-25,F,,,,,,97.5,,,,97.5,B,Multi-ply,1,,54.43
A. Svendsen,56,Juniors 20-25,20-25,F,,,,,,60,,,,60,B,Multi-ply,2,,
J. Wilson,56,Juniors 20-25,20-25,F,,,,,,60,,,,60,B,Multi-ply,3,,
B. Higginbotham,56,Juniors 20-25,20-25,F,,,,,,57.5,,,,57.5,B,Multi-ply,4,,
C. Hansen,67.5,Juniors 20-25,20-25,F,,,,,,80,,,,80,B,Multi-ply,1,,
C. McKeefer,67.5,Juniors 20-25,20-25,F,,,,,,52.5,,,,52.5,B,Multi-ply,2,,
Leonetta Richardson,75,Juniors 20-25,20-25,F,,,,,,117.5,,,,117.5,B,Multi-ply,1,,
Christy Richer,75,Juniors 20-25,20-25,F,,,,,,85,,,,85,B,Multi-ply,2,,
Lori Watson,48,Submasters 34-39,34-39,F,,,,,,72.5,,,,72.5,B,Multi-ply,1,,
Carmela Baqui,48,Submasters 34-39,34-39,F,,,,,,67.5,,,,67.5,B,Multi-ply,2,,
Teresa Schrank,52,Submasters 34-39,34-39,F,,,,,,72.5,,,,72.5,B,Multi-ply,1,,
Lynda Christopher,52,Submasters 34-39,34-39,F,,,,,,55,,,,55,B,Multi-ply,2,,
Maria Lewis,56,Submasters 34-39,34-39,F,,,,,,77.5,,,,77.5,B,Multi-ply,1,,
Julie Green #2,56,Submasters 34-39,34-39,F,,,,,,72.5,,,,72.5,B,Multi-ply,2,,
Heather Hughes,56,Submasters 34-39,34-39,F,,,,,,57.5,,,,57.5,B,Multi-ply,3,,
Elodia Womack,60,Submasters 34-39,34-39,F,,,,,,42.5,,,,42.5,B,Multi-ply,1,,
Kelley Mahoney,67.5,Submasters 34-39,34-39,F,,,,,,62.5,,,,62.5,B,Multi-ply,1,,
Sheri Wyatt,90+,Submasters 34-39,34-39,F,,,,,,92.5,,,,92.5,B,Multi-ply,1,,
Lisa Marie Garcia,44,Teen 13-15,13-15,F,,,,,,30,,,,30,B,Multi-ply,1,,40.37
Katherine DeLeon,56,Teen 13-15,13-15,F,,,,,,42.5,,,,42.5,B,Multi-ply,1,,
Nikki Williams,75,Teen 13-15,13-15,F,,,,,,62.5,,,,62.5,B,Multi-ply,1,,
Bonnie Buckwood,82.5,Teen 13-15,13-15,F,,,,,,60,,,,60,B,Multi-ply,1,,
Tera Kentris,44,Teen 16-19,16-19,F,,,,,,37.5,,,,37.5,B,Multi-ply,1,,
Emily Kubiak,48,Teen 16-19,16-19,F,,,,,,67.5,,,,67.5,B,Multi-ply,1,,
Merissa Baker,52,Teen 16-19,16-19,F,,,,,,55,,,,55,B,Multi-ply,1,,
Angela Pate,56,Teen 16-19,16-19,F,,,,,,50,,,,50,B,Multi-ply,1,,
Queen Underwood,67.5,Teen 16-19,16-19,F,16,,,,,70,,,,70,B,Multi-ply,1,,
T. Ellingsworth,67.5,Teen 16-19,16-19,F,,,,,,37.5,,,,37.5,B,Multi-ply,2,,
Kelly Womack,75,Teen 16-19,16-19,F,,,,,,82.5,,,,82.5,B,Multi-ply,1,,
Rachel Malone,90+,Teen 16-19,16-19,F,,,,,,85,,,,85,B,Multi-ply,1,,
Krista Williams,90+,Teen 16-19,16-19,F,,,,,,72.5,,,,72.5,B,Multi-ply,2,,
Ryan Kennelly,140,Open,,M,,305,322.5,-335,-335,322.5,,,,322.5,B,Multi-ply,G,,131.54
Bobby Sanders,56,Masters 40-46,40-46,M,,,,,,,,195,,195,D,Multi-ply,1,,
Nimrod Ochoa,60,Masters 40-46,40-46,M,,,,,,,,187.5,,187.5,D,Multi-ply,1,Guatemala,
Richard Cirigliano,75,Masters 40-46,40-46,M,,,,,,,,265,,265,D,Multi-ply,1,,
Daniel Winslow,75,Masters 40-46,40-46,M,,,,,,,,245,,245,D,Multi-ply,2,,
V. Ledford,75,Masters 40-46,40-46,M,,,,,,,,215,,215,D,Multi-ply,3,,
R. High,75,Masters 40-46,40-46,M,,,,,,,,207.5,,207.5,D,Multi-ply,4,,
Leamon Woodley,82.5,Masters 40-46,40-46,M,,,,,,,,305,,305,D,Multi-ply,1,,
Greg Zweig,82.5,Masters 40-46,40-46,M,,,,,,,,285,,285,D,Multi-ply,2,,
R. Cummins,82.5,Masters 40-46,40-46,M,,,,,,,,202.5,,202.5,D,Multi-ply,3,,
George Herring,90,Masters 40-46,40-46,M,,,,,,,,305,,305,D,Multi-ply,1,,
David Bertier,90,Masters 40-46,40-46,M,,,,,,,,247.5,,247.5,D,Multi-ply,2,,
Kevin Dunford,90,Masters 40-46,40-46,M,,,,,,,,230,,230,D,Multi-ply,3,,
C. Grier,90,Masters 40-46,40-46,M,,,,,,,,220,,220,D,Multi-ply,4,,
Mike McCormack,90,Masters 40-46,40-46,M,,,,,,,,212.5,,212.5,D,Multi-ply,5,,
D. Gomez,90,Masters 40-46,40-46,M,,,,,,,,202.5,,202.5,D,Multi-ply,6,,
Willie McCoy,100,Masters 40-46,40-46,M,,,,,,,,337.5,,337.5,D,Multi-ply,1,,97.52
Buddy McKee,100,Masters 40-46,40-46,M,,,,,,,,250,,250,D,Multi-ply,2,,
Larry Benner,100,Masters 40-46,40-46,M,,,,,,,,232.5,,232.5,D,Multi-ply,3,,
Paul Wondra,100,Masters 40-46,40-46,M,,,,,,,,220,,220,D,Multi-ply,4,,
Dan Davidson,110,Masters 40-46,40-46,M,,,,,,,,327.5,,327.5,D,Multi-ply,1,,
Jerry Capello,110,Masters 40-46,40-46,M,,,,,,,,325,333,325,D,Multi-ply,2,,
Bobby Driskill,110,Masters 40-46,40-46,M,,,,,,,,310,,310,D,Multi-ply,3,,
Al Dawson,110,Masters 40-46,40-46,M,,,,,,,,292.5,,292.5,D,Multi-ply,4,,
Arthur Clayton,110,Masters 40-46,40-46,M,,,,,,,,250,,250,D,Multi-ply,5,,
John LaGrill,110,Masters 40-46,40-46,M,,,,,,,,230,,230,D,Multi-ply,6,,
David Glahn,125,Masters 40-46,40-46,M,,,,,,,,282.5,,282.5,D,Multi-ply,1,,
B. Smith,125,Masters 40-46,40-46,M,,,,,,,,282.5,,282.5,D,Multi-ply,2,,
Paul Ratsch,125,Masters 40-46,40-46,M,,,,,,,,272.5,,272.5,D,Multi-ply,3,,
Ted Stewart,125,Masters 40-46,40-46,M,,,,,,,,260,,260,D,Multi-ply,4,,
Cyril Lewis,140,Masters 40-46,40-46,M,,,,,,,,332.5,,332.5,D,Multi-ply,1,,
Steve Khader,140,Masters 40-46,40-46,M,,,,,,,,285,,285,D,Multi-ply,2,,
John Newman,140,Masters 40-46,40-46,M,,,,,,,,237.5,,237.5,D,Multi-ply,3,,
Randy Young,140+,Masters 40-46,40-46,M,,,,,,,,295,,295,D,Multi-ply,1,,
David Chase,140+,Masters 40-46,40-46,M,,,,,,,,275,,275,D,Multi-ply,2,,
Barry Duncan,140+,Masters 40-46,40-46,M,,,,,,,,255,,255,D,Multi-ply,3,,
P. Benvin,140+,Masters 40-46,40-46,M,,,,,,,,215,,215,D,Multi-ply,4,,
Home Shivaie,60,Masters 47-53,47-53,M,,,,,,,,190,,190,D,Multi-ply,1,,
T. Henderson,75,Masters 47-53,47-53,M,,,,,,,,222.5,,222.5,D,Multi-ply,1,,
John Tyree,82.5,Masters 47-53,47-53,M,,,,,,,,272.5,,272.5,D,Multi-ply,1,,
Richard Hagedorn,82.5,Masters 47-53,47-53,M,,,,,,,,260,,260,D,Multi-ply,2,,
Jamey Mauldin,82.5,Masters 47-53,47-53,M,,,,,,,,210,,210,D,Multi-ply,3,,
C. Wood,82.5,Masters 47-53,47-53,M,,,,,,,,185,,185,D,Multi-ply,4,,
Anders Wahlund,90,Masters 47-53,47-53,M,,,,,,,,270,,270,D,Multi-ply,1,Sweden,
David Solan,90,Masters 47-53,47-53,M,,,,,,,,265,,265,D,Multi-ply,2,,
Mick Stevens,90,Masters 47-53,47-53,M,,,,,,,,245,,245,D,Multi-ply,3,,
Nick Sinardi,90,Masters 47-53,47-53,M,,,,,,,,245,,245,D,Multi-ply,4,,
Ronald Proctor,90,Masters 47-53,47-53,M,,,,,,,,222.5,,222.5,D,Multi-ply,5,,
R. Ward,90,Masters 47-53,47-53,M,,,,,,,,217.5,,217.5,D,Multi-ply,6,,
Jon Wolbers,100,Masters 47-53,47-53,M,,,,,,,,265,,265,D,Multi-ply,1,Canada,
Don Imrie,100,Masters 47-53,47-53,M,,,,,,,,220,,220,D,Multi-ply,2,,
Cliff Sandberg,110,Masters 47-53,47-53,M,,,,,,,,287.5,,287.5,D,Multi-ply,1,,
Roger Nelson,110,Masters 47-53,47-53,M,,,,,,,,262.5,,262.5,D,Multi-ply,2,,
Skip Grindall,110,Masters 47-53,47-53,M,,,,,,,,262.5,,262.5,D,Multi-ply,3,,
Bill Anderberg,110,Masters 47-53,47-53,M,,,,,,,,250,,250,D,Multi-ply,4,,
Sam Pecktol,125,Masters 47-53,47-53,M,,,,,,,,305,,305,D,Multi-ply,1,,
Tom Ekenberg,125,Masters 47-53,47-53,M,,,,,,,,272.5,,272.5,D,Multi-ply,2,,
Mike Moore #2,125,Masters 47-53,47-53,M,,,,,,,,262.5,,262.5,D,Multi-ply,3,,
Leo Contreras,125,Masters 47-53,47-53,M,,,,,,,,215,,215,D,Multi-ply,4,,
B. Wright,125,Masters 47-53,47-53,M,,,,,,,,192.5,,192.5,D,Multi-ply,5,,
Lorenzo Barrett,140+,Masters 47-53,47-53,M,,,,,,,,250,,250,D,Multi-ply,1,,
Keith Ward,140+,Masters 47-53,47-53,M,,,,,,,,175,,175,D,Multi-ply,2,,
Roberto Contreras,82.5,Masters 54-60,54-60,M,,,,,,,,225,,225,D,Multi-ply,1,,
James Christian #1,82.5,Masters 54-60,54-60,M,,,,,,,,205,,205,D,Multi-ply,2,,
F. Isernio,82.5,Masters 54-60,54-60,M,,,,,,,,192.5,,192.5,D,Multi-ply,3,,
M. Scott,82.5,Masters 54-60,54-60,M,,,,,,,,190,,190,D,Multi-ply,4,,
Jack Rankin,82.5,Masters 54-60,54-60,M,,,,,,,,180,,180,D,Multi-ply,5,,
Leonard Lense,90,Masters 54-60,54-60,M,,,,,,,,252.5,,252.5,D,Multi-ply,1,,
Tom Haggenmiller,90,Masters 54-60,54-60,M,,,,,,,,242.5,,242.5,D,Multi-ply,2,,
Jim Snodgrass,90,Masters 54-60,54-60,M,,,,,,,,220,,220,D,Multi-ply,3,,
Daniel Hawkinson,90,Masters 54-60,54-60,M,,,,,,,,210,,210,D,Multi-ply,4,,
Onnie Jordan,100,Masters 54-60,54-60,M,,,,,,,,272.5,,272.5,D,Multi-ply,1,,
Flip Silva Sr,100,Masters 54-60,54-60,M,,,,,,,,145,,145,D,Multi-ply,2,,
Bud Davis,110,Masters 54-60,54-60,M,,,,,,,,297.5,,297.5,D,Multi-ply,1,,
Mac Pope,110,Masters 54-60,54-60,M,,,,,,,,272.5,,272.5,D,Multi-ply,2,,
Daniel Smith III,110,Masters 54-60,54-60,M,,,,,,,,200,,200,D,Multi-ply,3,,
Ron Spikes,125,Masters 54-60,54-60,M,,,,,,,,267.5,,267.5,D,Multi-ply,1,,
Mike Fryar,125,Masters 54-60,54-60,M,,,,,,,,237.5,,237.5,D,Multi-ply,2,,
Eldon Olson,125,Masters 54-60,54-60,M,,,,,,,,195,,195,D,Multi-ply,3,,
Robert O. Smith,140,Masters 54-60,54-60,M,,,,,,,,257.5,,257.5,D,Multi-ply,1,Canada,
Larry Vincent,67.5,Masters 61-67,61-67,M,,,,,,,,167.5,,167.5,D,Multi-ply,1,,
Richard Gidcumb,67.5,Masters 61-67,61-67,M,,,,,,,,150,,150,D,Multi-ply,2,,
Richard Abbott,75,Masters 61-67,61-67,M,65,,,,,,,227.5,,227.5,D,Multi-ply,1,,
Tom Barth,90,Masters 61-67,61-67,M,,,,,,,,212.5,,212.5,D,Multi-ply,1,,
Bob Bassman,100,Masters 61-67,61-67,M,,,,,,,,210,,210,D,Multi-ply,1,,
Harold Smith,100,Masters 61-67,61-67,M,,,,,,,,207.5,,207.5,D,Multi-ply,2,,
Roger Kunz,100,Masters 61-67,61-67,M,,,,,,,,195,,195,D,Multi-ply,3,,
Larry Sandberg,110,Masters 61-67,61-67,M,,,,,,,,272.5,,272.5,D,Multi-ply,1,,
Omar Bruce,110,Masters 61-67,61-67,M,,,,,,,,247.5,,247.5,D,Multi-ply,2,,
Gary Johnson,140,Masters 61-67,61-67,M,,,,,,,,155,,155,D,Multi-ply,1,,
Robert Cortes,67.5,Masters 68-74,68-74,M,70,,,,,,,217.5,,217.5,D,Multi-ply,1,,
Jim Schall,75,Masters 68-74,68-74,M,,,,,,,,165,,165,D,Multi-ply,1,,
Donovan Phillips,75,Masters 68-74,68-74,M,,,,,,,,147.5,,147.5,D,Multi-ply,2,,
M. Garry,75,Masters 68-74,68-74,M,,,,,,,,,,,D,Multi-ply,DQ,,
R. Phillips,82.5,Masters 68-74,68-74,M,,,,,,,,205,,205,D,Multi-ply,1,,
Austin DeMello,90,Masters 68-74,68-74,M,,,,,,,,147.5,,147.5,D,Multi-ply,1,,
Lyndle Taylor,100,Masters 68-74,68-74,M,,,,,,,,217.5,,217.5,D,Multi-ply,1,,91.63
Arthur Whinston,67.5,Masters 75-79,75-79,M,77,,,,,,,67.5,75,67.5,D,Multi-ply,1,,
Bob Acosta,82.5,Masters 75-79,75-79,M,,,,,,,,142.5,,142.5,D,Multi-ply,1,,
Enrique Garcia,82.5,Masters 75-79,75-79,M,,,,,,,,140,,140,D,Multi-ply,2,Guatemala,
Herb Brandt,110,Masters 75-79,75-79,M,,,,,,,,160,,160,D,Multi-ply,1,,
Cal Davis,125,Masters 75-79,75-79,M,,,,,,,,170,,170,D,Multi-ply,1,,
Marc Morishige,56,Open,,M,,,,,,,,215,,215,D,Multi-ply,1,,
Bobby Sanders,56,Open,,M,,,,,,,,195,,195,D,Multi-ply,2,,
Herbeth Garcia,60,Open,,M,,,,,,,,205,,205,D,Multi-ply,1,Guatemala,
Stanley Mendez,60,Open,,M,,,,,,,,172.5,,172.5,D,Multi-ply,2,,
Monte Hokoana,67.5,Open,,M,,,,,,,,260,,260,D,Multi-ply,1,,
Marvin Wideman,67.5,Open,,M,,,,,,,,217.5,,217.5,D,Multi-ply,2,,
B. Montague,67.5,Open,,M,,,,,,,,215,,215,D,Multi-ply,3,,
Damian Osgood,67.5,Open,,M,,,,,,,,210,,210,D,Multi-ply,4,,
Richard Cirigliano,75,Open,,M,,,,,,,,265,,265,D,Multi-ply,1,,
Ryan Snelling,75,Open,,M,20,,,,,,,255,,255,D,Multi-ply,2,,
T. Henderson,75,Open,,M,,,,,,,,222.5,,222.5,D,Multi-ply,3,,
V. Ledford,75,Open,,M,,,,,,,,215,,215,D,Multi-ply,4,,
C. McGrail,75,Open,,M,,,,,,,,,,,D,Multi-ply,DQ,,
Leamon Woodley,82.5,Open,,M,,,,,,,,305,,305,D,Multi-ply,1,,
Greg Zweig,82.5,Open,,M,,,,,,,,290,,290,D,Multi-ply,2,,
Corey Evans,82.5,Open,,M,,,,,,,,265,,265,D,Multi-ply,3,,
Nathan Nelson,82.5,Open,,M,,,,,,,,250,,250,D,Multi-ply,4,,
George Herring,90,Open,,M,,,,,,,,305,,305,D,Multi-ply,1,,
Jeff Ray,90,Open,,M,,,,,,,,287.5,,287.5,D,Multi-ply,2,,
Anders Wahlund,90,Open,,M,,,,,,,,270,,270,D,Multi-ply,3,Sweden,
Troy Weippert,90,Open,,M,,,,,,,,262.5,,262.5,D,Multi-ply,4,,
Mark Pearce,90,Open,,M,,,,,,,,242.5,,242.5,D,Multi-ply,5,,
George Herring,100,Open,,M,,,,,,,,310,,310,D,Multi-ply,1,,
Phil Davi,100,Open,,M,,,,,,,,290,,290,D,Multi-ply,2,,
Scott Burgess,100,Open,,M,,,,,,,,290,,290,D,Multi-ply,3,,
Dodd Adams,100,Open,,M,,,,,,,,277.5,,277.5,D,Multi-ply,4,,
Matt LaMarque,100,Open,,M,,,,,,,,277.5,,277.5,D,Multi-ply,5,,
T. Fryar,100,Open,,M,,,,,,,,275,,275,D,Multi-ply,6,,
Wheatfall,100,Open,,M,,,,,,,,272.5,,272.5,D,Multi-ply,7,,
P. Beck,100,Open,,M,,,,,,,,267.5,,267.5,D,Multi-ply,8,,
John Boettger,100,Open,,M,,,,,,,,247.5,,247.5,D,Multi-ply,9,,
Henry Higgins,100,Open,,M,,,,,,,,247.5,,247.5,D,Multi-ply,10,,
R. Schutz,100,Open,,M,,,,,,,,,,,D,Multi-ply,DQ,,
Noah Chambreau,110,Open,,M,,,,,,,,365,,365,D,Multi-ply,1,,
Brent Howard,110,Open,,M,,,,,,,,337.5,,337.5,D,Multi-ply,2,,
Jerry Capello,110,Open,,M,,,,,,,,325,333,325,D,Multi-ply,3,,
Ben Matheson,110,Open,,M,,,,,,,,320,,320,D,Multi-ply,4,,
Al Dawson,110,Open,,M,,,,,,,,292.5,,292.5,D,Multi-ply,5,,
Gary Lands,110,Open,,M,,,,,,,,272.5,,272.5,D,Multi-ply,6,,
Roger Nelson,110,Open,,M,,,,,,,,262.5,,262.5,D,Multi-ply,7,,
J. Westling,110,Open,,M,,,,,,,,240,,240,D,Multi-ply,8,,
Phil Andrews,110,Open,,M,,,,,,,-350,,,,D,Multi-ply,DQ,,
Patrick Holloway,125,Open,,M,,,,,,,,327.5,,327.5,D,Multi-ply,1,,
Steve Hendricks,125,Open,,M,,,,,,,,287.5,,287.5,D,Multi-ply,2,,
Casey Smith,125,Open,,M,,,,,,,,285,,285,D,Multi-ply,3,,
David Glahn,125,Open,,M,,,,,,,,282.5,,282.5,D,Multi-ply,4,,
P. Marcoff,125,Open,,M,,,,,,,,247.5,,247.5,D,Multi-ply,5,,
Jerry Pritchett,140,Open,,M,,,,,,,,320,,320,D,Multi-ply,1,,
Steve Khader,140,Open,,M,,,,,,,,285,,285,D,Multi-ply,2,,
Dean Munsey,140+,Open,,M,,,,,,,,320,,320,D,Multi-ply,1,,
Vincent Eldridge,140+,Open,,M,,,,,,,,305,,305,D,Multi-ply,2,,
Salomon Marroguin,60,Submasters 34-39,34-39,M,,,,,,,,190,192.5,190,D,Multi-ply,1,Guatemala,
Marvin Wideman,67.5,Submasters 34-39,34-39,M,,,,,,,,217.5,,217.5,D,Multi-ply,1,,
Gerald Figard,75,Submasters 34-39,34-39,M,,,,,,,,187.5,,187.5,D,Multi-ply,1,,
Brian Baertlein,82.5,Submasters 34-39,34-39,M,,,,,,,,255,,255,D,Multi-ply,1,,
Dan Guches,82.5,Submasters 34-39,34-39,M,,,,,,,,240,,240,D,Multi-ply,2,,
Jeff Ray,90,Submasters 34-39,34-39,M,,,,,,,,287.5,,287.5,D,Multi-ply,1,,
Troy Weippert,90,Submasters 34-39,34-39,M,,,,,,,,262.5,,262.5,D,Multi-ply,2,,
Randy Green,100,Submasters 34-39,34-39,M,,,,,,,,282.5,,282.5,D,Multi-ply,1,,
Dodd Adams,100,Submasters 34-39,34-39,M,,,,,,,,277.5,,277.5,D,Multi-ply,2,,
Bobby Myers,100,Submasters 34-39,34-39,M,,,,,,,,272.5,,272.5,D,Multi-ply,3,,
P. Beck,100,Submasters 34-39,34-39,M,,,,,,,,267.5,,267.5,D,Multi-ply,4,,
Ron Harlow,110,Submasters 34-39,34-39,M,,,,,,,,307.5,,307.5,D,Multi-ply,1,,
Rick Padgett,110,Submasters 34-39,34-39,M,,,,,,,,305,,305,D,Multi-ply,2,,
Gary Lands,110,Submasters 34-39,34-39,M,,,,,,,,272.5,,272.5,D,Multi-ply,3,,
Robert Exum,110,Submasters 34-39,34-39,M,,,,,,,,237.5,,237.5,D,Multi-ply,4,,
Matthew Hyrcha,125,Submasters 34-39,34-39,M,,,,,,,,327.5,,327.5,D,Multi-ply,1,Canada,
R. Norris,125,Submasters 34-39,34-39,M,,,,,,,,295,,295,D,Multi-ply,2,,
William Pontius,125,Submasters 34-39,34-39,M,,,,,,,,272.5,,272.5,D,Multi-ply,3,,
Todd Christensen,125,Submasters 34-39,34-39,M,,,,,,,,265,,265,D,Multi-ply,4,,
Vincent Eldridge,140+,Submasters 34-39,34-39,M,,,,,,,,305,,305,D,Multi-ply,1,,
Stanley Mendez,60,Juniors 20-25,20-25,M,,,,,,,,172.5,,172.5,D,Multi-ply,1,,
Steve Newman,67.5,Juniors 20-25,20-25,M,,,,,,,,200,,200,D,Multi-ply,1,,
Ryan Snelling,75,Juniors 20-25,20-25,M,20,,,,,,,255,,255,D,Multi-ply,1,,
Jonathan Tcruz,75,Juniors 20-25,20-25,M,,,,,,,,230,,230,D,Multi-ply,2,,
Joe Ojeda,75,Juniors 20-25,20-25,M,,,,,,,,207.5,,207.5,D,Multi-ply,3,,
A. Stephens,75,Juniors 20-25,20-25,M,,,,,,,,205,,205,D,Multi-ply,4,,
T. McKinney,75,Juniors 20-25,20-25,M,,,,,,,,187.5,,187.5,D,Multi-ply,5,,
C. McGrail,75,Juniors 20-25,20-25,M,,,,,,,,,,,D,Multi-ply,DQ,,
Steve McMillan,82.5,Juniors 20-25,20-25,M,,,,,,,,202.5,,202.5,D,Multi-ply,1,,
T. Baisy,82.5,Juniors 20-25,20-25,M,,,,,,,,192.5,,192.5,D,Multi-ply,2,,
John Harris,82.5,Juniors 20-25,20-25,M,,,,,,,,190,,190,D,Multi-ply,3,,
Ernie Mil-Homens,90,Juniors 20-25,20-25,M,,,,,,,,290,,290,D,Multi-ply,1,Canada,
Chad Matthews,90,Juniors 20-25,20-25,M,,,,,,,,287.5,,287.5,D,Multi-ply,2,,
S. Thompson,90,Juniors 20-25,20-25,M,,,,,,,,227.5,,227.5,D,Multi-ply,3,,
K. Roberson,90,Juniors 20-25,20-25,M,,,,,,,,195,,195,D,Multi-ply,4,,
A. Bixler,90,Juniors 20-25,20-25,M,,,,,,,,160,,160,D,Multi-ply,5,,
Phil Davi,100,Juniors 20-25,20-25,M,,,,,,,,290,,290,D,Multi-ply,1,,
Tony Arterburn,110,Juniors 20-25,20-25,M,,,,,,,,277.5,,277.5,D,Multi-ply,1,,
Jason Parman,125,Juniors 20-25,20-25,M,,,,,,,,287.5,,287.5,D,Multi-ply,1,,
Toby Levers,125,Juniors 20-25,20-25,M,,,,,,,,272.5,,272.5,D,Multi-ply,2,,
J. Verside,125,Juniors 20-25,20-25,M,,,,,,,,235,,235,D,Multi-ply,3,,
Jerry Pritchett,140,Juniors 20-25,20-25,M,,,,,,,,320,,320,D,Multi-ply,1,,
Kenneth Merck,140,Juniors 20-25,20-25,M,,,,,,,,295,,295,D,Multi-ply,2,,
Daniel Winslow,67.5,Class 1,,M,14,,,,,,,192.5,,192.5,D,Multi-ply,1,,
Jon Shapiro,67.5,Class 1,,M,,,,,,,,162.5,,162.5,D,Multi-ply,2,,
Richard Gidcumb,67.5,Class 1,,M,,,,,,,,150,,150,D,Multi-ply,3,,
Richard Smith,75,Class 1,,M,,,,,,,,215,,215,D,Multi-ply,1,,
Joe Ojeda,75,Class 1,,M,,,,,,,,207.5,,207.5,D,Multi-ply,2,,
R. High,75,Class 1,,M,,,,,,,,207.5,,207.5,D,Multi-ply,3,,
A. Takayoshi,75,Class 1,,M,,,,,,,,197.5,,197.5,D,Multi-ply,4,,
Gerald Figard,75,Class 1,,M,,,,,,,,187.5,,187.5,D,Multi-ply,5,,
Robert Straker,75,Class 1,,M,,,,,,,,182.5,,182.5,D,Multi-ply,6,,
Steve McMillan,82.5,Class 1,,M,,,,,,,,202.5,,202.5,D,Multi-ply,1,,
Brett Blausey,90,Class 1,,M,,,,,,,,267.5,,267.5,D,Multi-ply,1,,
Michael Rainey,90,Class 1,,M,,,,,,,,247.5,,247.5,D,Multi-ply,2,,
Mark Pearce,90,Class 1,,M,,,,,,,,242.5,,242.5,D,Multi-ply,3,,
Brian Bishop #3,90,Class 1,,M,,,,,,,,232.5,,232.5,D,Multi-ply,4,,
Kevin Dunford,90,Class 1,,M,,,,,,,,230,,230,D,Multi-ply,5,,
Steve Ughe,90,Class 1,,M,,,,,,,,230,,230,D,Multi-ply,6,,
D. Gomez,90,Class 1,,M,,,,,,,,202.5,,202.5,D,Multi-ply,7,,
Christopher Nelson,100,Class 1,,M,,,,,,,,275,,275,D,Multi-ply,2,,
Bobby Myers,100,Class 1,,M,,,,,,,,300,,300,D,Multi-ply,1,,
James Carter II,100,Class 1,,M,,,,,,,,260,,260,D,Multi-ply,3,,
Michael Matteucci,100,Class 1,,M,,,,,,,,250,,250,D,Multi-ply,4,,
Buddy McKee,100,Class 1,,M,,,,,,,,250,,250,D,Multi-ply,5,,
John Boettger,100,Class 1,,M,,,,,,,,247.5,,247.5,D,Multi-ply,6,,
MacQuarrie,100,Class 1,,M,,,,,,,,242.5,,242.5,D,Multi-ply,7,,
Steve Peña #1,100,Class 1,,M,,,,,,,,242.5,,242.5,D,Multi-ply,8,,
J. DePalmer,100,Class 1,,M,,,,,,,,230,,230,D,Multi-ply,9,,
Cody Colchado,110,Class 1,,M,,,,,,,,260,,260,D,Multi-ply,1,,
Robert Budd,110,Class 1,,M,,,,,,,,255,,255,D,Multi-ply,2,,
R. Peck,110,Class 1,,M,,,,,,,,240,,240,D,Multi-ply,3,,
Gregg Ramsdell,110,Class 1,,M,,,,,,,,235,,235,D,Multi-ply,4,,
John LaGrill,110,Class 1,,M,,,,,,,,230,,230,D,Multi-ply,5,,
Tom Ekenberg,125,Class 1,,M,,,,,,,,272.5,,272.5,D,Multi-ply,1,,
William Pontius,125,Class 1,,M,,,,,,,,272.5,,272.5,D,Multi-ply,2,,
Leo Contreras,125,Class 1,,M,,,,,,,,215,,215,D,Multi-ply,3,,
Kenneth Merck,140,Class 1,,M,,,,,,,,295,,295,D,Multi-ply,1,,
John Newman,140,Class 1,,M,,,,,,,,237.5,,237.5,D,Multi-ply,2,,
Barry Duncan,140+,Class 1,,M,,,,,,,,255,,255,D,Multi-ply,1,,
Mitchell Ellis,44,Teen 13-15,13-15,M,,,,,,,,102.5,,102.5,D,Multi-ply,1,,
B. Huffer,56,Teen 13-15,13-15,M,,,,,,,,70,,70,D,Multi-ply,1,,
Zach O'Quinn,60,Teen 13-15,13-15,M,,,,,,,,140,,140,D,Multi-ply,1,,
N. Worley,60,Teen 13-15,13-15,M,,,,,,,,120,,120,D,Multi-ply,2,,
Daniel Winslow,67.5,Teen 13-15,13-15,M,14,,,,,,,192.5,,192.5,D,Multi-ply,1,,
Clayton Pinson,67.5,Teen 13-15,13-15,M,,,,,,,,112.5,,112.5,D,Multi-ply,2,,
N. Luttrell,67.5,Teen 13-15,13-15,M,,,,,,,,77.5,,77.5,D,Multi-ply,3,,
Phillip Boozer,75,Teen 13-15,13-15,M,,,,,,,,170,,170,D,Multi-ply,1,,
Andy Munsey,75,Teen 13-15,13-15,M,,,,,,,,167.5,,167.5,D,Multi-ply,2,,
Borchardt,75,Teen 13-15,13-15,M,,,,,,,,160,,160,D,Multi-ply,3,,
Adam Contreras #1,75,Teen 13-15,13-15,M,,,,,,,,110,,110,D,Multi-ply,4,,
Micky Martin,82.5,Teen 13-15,13-15,M,,,,,,,,112.5,,112.5,D,Multi-ply,1,,
James Perry #6,90,Teen 13-15,13-15,M,,,,,,,,145,,145,D,Multi-ply,1,,
Zak Smith,125,Teen 13-15,13-15,M,15,,,,,,,225,,225,D,Multi-ply,1,,
Randall Griggs,48,Teen 16-19,16-19,M,,,,,,,,127.5,,127.5,D,Multi-ply,1,,
Damian Lewis,60,Teen 16-19,16-19,M,,,,,,,,160,,160,D,Multi-ply,1,,
Michael Brown,60,Teen 16-19,16-19,M,,,,,,,,137.5,,137.5,D,Multi-ply,2,,
Josh Womack,60,Teen 16-19,16-19,M,,,,,,,,125,,125,D,Multi-ply,3,,
Damian Osgood,67.5,Teen 16-19,16-19,M,,,,,,,,210,,210,D,Multi-ply,1,,
Hayward Blake,75,Teen 16-19,16-19,M,,,,,,,,232.5,,232.5,D,Multi-ply,1,,
Nick Luiz,82.5,Teen 16-19,16-19,M,,,,,,,,245,,245,D,Multi-ply,1,,
Adrian Francis,82.5,Teen 16-19,16-19,M,,,,,,,,230,,230,D,Multi-ply,2,,
Michael Minahan,82.5,Teen 16-19,16-19,M,,,,,,,,187.5,,187.5,D,Multi-ply,3,,
Matthew Christie,90,Teen 16-19,16-19,M,,,,,,,,230,,230,D,Multi-ply,1,,
K. Vorsatz,90,Teen 16-19,16-19,M,,,,,,,,205,,205,D,Multi-ply,2,,
D. Rogers,90,Teen 16-19,16-19,M,,,,,,,,177.5,,177.5,D,Multi-ply,3,,
Nick Heppner,100,Teen 16-19,16-19,M,16,,,,,,,227.5,,227.5,D,Multi-ply,1,,
Brandon Huffer,110,Teen 16-19,16-19,M,,,,,,,,192.5,,192.5,D,Multi-ply,1,,
J. Davasher,125,Teen 16-19,16-19,M,,,,,,,,202.5,,202.5,D,Multi-ply,1,,
Matt Morvai,125,Teen 16-19,16-19,M,,,,,,,,175,,175,D,Multi-ply,2,,
Andy Ellis,75,Law/Fire Open,,M,,,,,,,,237.5,247.5,237.5,D,Multi-ply,1,,74.16
Zachary Clark,100,Law/Fire Open,,M,,,,,,,,300,,300,D,Multi-ply,1,,
Matt LaMarque,100,Law/Fire Open,,M,,,,,,,,277.5,,277.5,D,Multi-ply,2,,
Michael Matteucci,100,Law/Fire Open,,M,,,,,,,,250,,250,D,Multi-ply,3,,
E. Carvajal,100,Law/Fire Open,,M,,,,,,,,237.5,,237.5,D,Multi-ply,4,,
Brent Howard,110,Law/Fire Open,,M,,,,,,,,337.5,,337.5,D,Multi-ply,1,,
M. Smyser,110,Law/Fire Open,,M,,,,,,,,257.5,,257.5,D,Multi-ply,2,,
Casey Smith,125,Law/Fire Open,,M,,,,,,,,285,,285,D,Multi-ply,1,,
J. McGrath,125,Law/Fire Open,,M,,,,,,,,215,,215,D,Multi-ply,2,,
T. Wilson,82.5,Law/Fire Masters 40-47,40-47,M,,,,,,,,240,,240,D,Multi-ply,1,,
Zachary Clark,100,Law/Fire Masters 40-47,40-47,M,,,,,,,,300,,300,D,Multi-ply,1,,
Dwayne England,100,Law/Fire Masters 40-47,40-47,M,,,,,,,,227.5,,227.5,D,Multi-ply,2,,
Arthur Clayton,110,Law/Fire Masters 40-47,40-47,M,,,,,,,,250,,250,D,Multi-ply,1,,
M. Irwin,110,Law/Fire Masters 40-47,40-47,M,,,,,,,,250,,250,D,Multi-ply,2,,
Walt Faulkner,125,Law/Fire Masters 40-47,40-47,M,,,,,,,,300,,300,D,Multi-ply,1,,
John Minahan,140,Law/Fire Masters 40-47,40-47,M,,,,,,,,260,,260,D,Multi-ply,1,,
Eldon Olson,125,Law/Fire Masters 48+,48-999,M,,,,,,,,195,,195,D,Multi-ply,1,,
Isaac Pankratz,140,Law/Fire Masters 48+,48-999,M,,,,,,,,237.5,,237.5,D,Multi-ply,1,,
Andy Ellis,75,Law/Fire Submasters 34-39,34-39,M,,,,,,,,237.5,,237.5,D,Multi-ply,1,,74.16
Eric Fox,82.5,Law/Fire Submasters 34-39,34-39,M,,,,,,,,217.5,,217.5,D,Multi-ply,1,,
Kevin Eller,100,Law/Fire Submasters 34-39,34-39,M,,,,,,,,252.5,,252.5,D,Multi-ply,1,,
Tyler Kopta,110,Law/Fire Submasters 34-39,34-39,M,,,,,,,,245,,245,D,Multi-ply,1,,
B. Huffer,56,Disabled,,M,,,,,,,,70,,70,D,Multi-ply,1,,
Nick Sinardi,90,Disabled,,M,,,,,,,,245,,245,D,Multi-ply,1,,
Steve Peña #1,100,Disabled,,M,,,,,,,,242.5,,242.5,D,Multi-ply,1,,
Cody Colchado,110,Disabled,,M,,,,,,,,257.5,,257.5,D,Multi-ply,1,,
D. Morgan,60,,,M,,,,,,,,122.5,,122.5,D,Multi-ply,1,,
Eric Janvier,60,,,M,,,,,,,,122.5,,122.5,D,Multi-ply,2,,
Jon Shapiro,67.5,,,M,,,,,,,,165,,165,D,Multi-ply,1,,
Brent Ruth,75,,,M,,,,,,,,150,,150,D,Multi-ply,1,,
D. Hodges,75,,,M,,,,,,,,122.5,,122.5,D,Multi-ply,2,,
Anthony Belfils,82.5,,,M,,,,,,,,170,,170,D,Multi-ply,1,,
M. McHugh,82.5,,,M,,,,,,,,147.5,,147.5,D,Multi-ply,2,,
E. Greene,82.5,,,M,,,,,,,,90,,90,D,Multi-ply,3,,
A. Bixler,90,,,M,,,,,,,,160,,160,D,Multi-ply,1,,
J. Marchu,90,,,M,,,,,,,,150,,150,D,Multi-ply,2,,
L. Rivera,90,,,M,,,,,,,,137.5,,137.5,D,Multi-ply,3,,
Richard Dunning,90,,,M,,,,,,,,115,,115,D,Multi-ply,4,,
Anthony Johnson,100,,,M,,,,,,,,202.5,,202.5,D,Multi-ply,1,,
K. Dean,100,,,M,,,,,,,,192.5,,192.5,D,Multi-ply,2,,
J. Gonzales,100,,,M,,,,,,,,185,,185,D,Multi-ply,3,,
Jeff Hybl,100,,,M,,,,,,,,117.5,,117.5,D,Multi-ply,4,,
M. Uon,125,,,M,,,,,,,,187.5,,187.5,D,Multi-ply,1,,
L. Henderson,125,,,M,,,,,,,,155,,155,D,Multi-ply,2,,
Jock Mayes,140,,,M,,,,,,,,160,,160,D,Multi-ply,1,,
Lisa Marie Garcia,44,,,F,,,,,,,,77.5,,77.5,D,Multi-ply,1,,40.37
Bernadette Hanson,75,,,F,,,,,,,,117.5,,117.5,D,Multi-ply,1,,
L. Dare,75,,,F,,,,,,,,112.5,,112.5,D,Multi-ply,2,,
E. Matlack,82.5,,,F,,,,,,,,87.5,,87.5,D,Multi-ply,1,,
H. Matlack,90,,,F,,,,,,,,67.5,,67.5,D,Multi-ply,1,,
S. Rosas,44,Disabled,,F,,,,,,,,45,,45,D,Multi-ply,1,,
Katherine DeLeon,56,Disabled,,F,,,,,,,,95,,95,D,Multi-ply,1,,
T. Ellingsworth,67.5,Disabled,,F,,,,,,,,110,,110,D,Multi-ply,1,,
Leticia Rosales-Buie,56,Masters 40-46,40-46,F,,,,,,,,135,,135,D,Multi-ply,1,,
Denise Ruff,56,Masters 40-46,40-46,F,,,,,,,,127.5,,127.5,D,Multi-ply,2,,
Selina May,56,Masters 40-46,40-46,F,,,,,,,,115,,115,D,Multi-ply,3,,
Heidi Gantz,60,Masters 40-46,40-46,F,,,,,,,,172.5,177.5,172.5,D,Multi-ply,1,,
Dru Amos,67.5,Masters 40-46,40-46,F,,,,,,,,162.5,,162.5,D,Multi-ply,1,,
Lyn Silbert,75,Masters 40-46,40-46,F,,,,,,,,175,,175,D,Multi-ply,1,,
Mary Jacobson,75,Masters 40-46,40-46,F,,,,,,,,167.5,,167.5,D,Multi-ply,2,,
Susan Adkison,90+,Masters 40-46,40-46,F,,,,,,,,155,,155,D,Multi-ply,1,,
Glenda Egan,52,Masters 47-53,47-53,F,,,,,,,,117.5,,117.5,D,Multi-ply,1,,
Heidi Rodriguez,52,Masters 47-53,47-53,F,,,,,,,,100,,100,D,Multi-ply,2,Guatemala,
Patty Pendergast,60,Masters 47-53,47-53,F,,,,,,,,142.5,,142.5,D,Multi-ply,1,,
Louise Turner,60,Masters 47-53,47-53,F,,,,,,,,137.5,,137.5,D,Multi-ply,2,,
Rosemary Harrington,75,Masters 47-53,47-53,F,,,,,,,,147.5,,147.5,D,Multi-ply,1,,
Claire Ashton-Heckathorn,82.5,Masters 47-53,47-53,F,50,,,,,,,125,,125,D,Multi-ply,1,,
Carolyn Fay,90+,Masters 47-53,47-53,F,,,,,,,,110,,110,D,Multi-ply,1,,
Delia Chilgren,90+,Masters 47-53,47-53,F,,,,,,,,102.5,,102.5,D,Multi-ply,2,,
Carolyn Paulson,56,Masters 54-60,54-60,F,,,,,,,,102.5,107.5,102.5,D,Multi-ply,1,,
Jane Honeycutt,56,Masters 54-60,54-60,F,,,,,,,,95,,95,D,Multi-ply,2,,
L. Hopkins,56,Masters 54-60,54-60,F,,,,,,,,87.5,,87.5,D,Multi-ply,3,,
Sandi Butler,67.5,Masters 54-60,54-60,F,,,,,,,,120,,120,D,Multi-ply,1,,
M. Goffey,67.5,Masters 54-60,54-60,F,,,,,,,,92.5,,92.5,D,Multi-ply,2,,
Karen Polansky,82.5,Masters 54-60,54-60,F,,,,,,,,150,,150,D,Multi-ply,1,,
Thea Strom,90,Masters 54-60,54-60,F,,,,,,,,115,,115,D,Multi-ply,1,,
Dawn Ivey-Vick,90+,Masters 54-60,54-60,F,,,,,,,,110,,110,D,Multi-ply,1,,
Grace Cloninger,82.5,Masters 61-67,61-67,F,,,,,,,,127.5,,127.5,D,Multi-ply,1,,
Pauli Forquer,60,Masters 68-74,68-74,F,,,,,,,,77.5,,77.5,D,Multi-ply,1,,
Melicent Whinston,60,Masters 68-74,68-74,F,,,,,,,,67.5,,67.5,D,Multi-ply,2,,
Leticia Rosales-Buie,56,Law/Fire Masters 40-47,40-47,F,,,,,,,,135,,135,D,Multi-ply,1,,
Louise Turner,60,Law/Fire Masters 48+,48-999,F,,,,,,,,137.5,,137.5,D,Multi-ply,1,,
Carolyn Fay,90+,Law/Fire Masters 48+,48-999,F,,,,,,,,110,,110,D,Multi-ply,1,,
Tera Kentris,44,Open,,F,,,,,,,,70,,70,D,Multi-ply,1,,
Carmela Baqui,48,Open,,F,,,,,,,,147.5,,147.5,D,Multi-ply,1,,
Emily Kubiak,48,Open,,F,,,,,,,,105,,105,D,Multi-ply,2,,
Mindi Zierold,52,Open,,F,,,,,,,,137.5,,137.5,D,Multi-ply,1,,
Lynda Christopher,52,Open,,F,,,,,,,,102.5,,102.5,D,Multi-ply,2,,
Valerie Tyree,56,Open,,F,,,,,,,,187.5,,187.5,D,Multi-ply,1,,54.2
B. Higginbotham,56,Open,,F,,,,,,,,117.5,,117.5,D,Multi-ply,2,,
Danna Snow,56,Open,,F,,,,,,,,112.5,,112.5,D,Multi-ply,3,,
Jerri-Lynn Lippert,60,Open,,F,,,,,,,,187.5,,187.5,D,Multi-ply,1,,
Heidi Gantz,60,Open,,F,,,,,,,,172.5,,172.5,D,Multi-ply,2,,
E. Moore,60,Open,,F,,,,,,,,140,,140,D,Multi-ply,3,,
Karoliina Liuska,60,Open,,F,,,,,,,,115,,115,D,Multi-ply,4,,
Dru Amos,67.5,Open,,F,,,,,,,,162.5,,162.5,D,Multi-ply,1,,
Mary Jacobson,75,Open,,F,,,,,,,,177.5,,177.5,D,Multi-ply,1,,
Lyn Silbert,75,Open,,F,,,,,,,,175,,175,D,Multi-ply,2,,
Lisa Saleh,75,Open,,F,,,,,,,,130,,130,D,Multi-ply,3,,
Joanne Warner,82.5,Open,,F,,,,,,,,205,,205,D,Multi-ply,1,,
Daria Cal,90+,Open,,F,,,,,,,,165,,165,D,Multi-ply,1,,
Michelle Williamson,90+,Open,,F,,,,,,,,157.5,,157.5,D,Multi-ply,2,,
Amy van der Pol,90+,Open,,F,,,,,,,,150,,150,D,Multi-ply,3,,
L. Paquette,90+,Open,,F,,,,,,,,132.5,,132.5,D,Multi-ply,4,,
Krista Williams,90+,Open,,F,,,,,,,,102.5,,102.5,D,Multi-ply,5,,
Lisa Marie Garcia,44,Teen 13-15,13-15,F,,,,,,,,77.5,,77.5,D,Multi-ply,1,,40.37
Katherine DeLeon,56,Teen 13-15,13-15,F,,,,,,,,95,,95,D,Multi-ply,1,,
Bonnie Buckwood,82.5,Teen 13-15,13-15,F,,,,,,,,130,,130,D,Multi-ply,1,,
Tera Kentris,44,Teen 16-19,16-19,F,,,,,,,,70,,70,D,Multi-ply,1,,
Emily Kubiak,48,Teen 16-19,16-19,F,,,,,,,,105,,105,D,Multi-ply,1,,
Merissa Baker,52,Teen 16-19,16-19,F,,,,,,,,115,,115,D,Multi-ply,1,,
Queen Underwood,67.5,Teen 16-19,16-19,F,16,,,,,,,160,,160,D,Multi-ply,1,,
T. Ellingsworth,67.5,Teen 16-19,16-19,F,,,,,,,,105,,105,D,Multi-ply,2,,
Kelly Womack,75,Teen 16-19,16-19,F,,,,,,,,135,,135,D,Multi-ply,1,,
Erica Tawney,82.5,Teen 16-19,16-19,F,,,,,,,,137.5,,137.5,D,Multi-ply,1,,
Krista Williams,90+,Teen 16-19,16-19,F,,,,,,,,102.5,,102.5,D,Multi-ply,1,,
Stephanie Henrise,52,Juniors 20-25,20-25,F,,,,,,,,115,,115,D,Multi-ply,1,,
Tamara Coulombe,56,Juniors 20-25,20-25,F,,,,,,,,137.5,,137.5,D,Multi-ply,1,,54.43
B. Higginbotham,56,Juniors 20-25,20-25,F,,,,,,,,117.5,,117.5,D,Multi-ply,2,,
J. Wilson,56,Juniors 20-25,20-25,F,,,,,,,,115,,115,D,Multi-ply,3,,
Leonetta Richardson,75,Juniors 20-25,20-25,F,,,,,,,,170,,170,D,Multi-ply,1,,
Christy Richer,75,Juniors 20-25,20-25,F,,,,,,,,150,,150,D,Multi-ply,2,,
Carmela Baqui,48,Submasters 34-39,34-39,F,,,,,,,,147.5,,147.5,D,Multi-ply,1,,
Lynda Christopher,52,Submasters 34-39,34-39,F,,,,,,,,102.5,,102.5,D,Multi-ply,1,,
Julie Green #1,56,Submasters 34-39,34-39,F,,,,,,,,140,,140,D,Multi-ply,1,,
Heather Hughes,56,Submasters 34-39,34-39,F,,,,,,,,137.5,,137.5,D,Multi-ply,2,,
S. Decker,56,Submasters 34-39,34-39,F,,,,,,,,135,,135,D,Multi-ply,3,,
Elodia Womack,60,Submasters 34-39,34-39,F,,,,,,,,95,,95,D,Multi-ply,1,,
Kelley Mahoney,67.5,Submasters 34-39,34-39,F,,,,,,,,92.5,,92.5,D,Multi-ply,1,,
Daria Cal,90+,Submasters 34-39,34-39,F,,,,,,,,165,,165,D,Multi-ply,1,,
Sheri Wyatt,90+,Submasters 34-39,34-39,F,,,,,,,,155,,155,D,Multi-ply,2,,
Karen Gordon,56,Law/Fire Open,,F,,,,,,,,155,,155,D,Multi-ply,1,,53.52
