Division,WeightClassKg,Place,Name,Team,BodyweightKg,Best3SquatKg,Best3BenchKg,Best3DeadliftKg,TotalKg,Equipment,Event,Sex
Boys,51.71,1,CJ Leos,Sunnyvale,49.35,79.38,45.36,92.99,217.72,Single-ply,SBD,M
Boys,55.79,1,Lane Anthony,Nevada Community,53.16,156.49,68.04,151.95,376.48,Single-ply,SBD,M
Boys,59.87,1,Ethan Lee,Sunnyvale,59.6,136.08,70.31,142.88,349.27,Single-ply,SBD,M
Boys,59.87,2,Luke Griffin,Sunnyvale,59.15,111.13,63.5,138.35,312.98,Single-ply,SBD,M
Boys,59.87,3,Hunter Wiggington,Sunnyvale,59.69,113.4,63.5,129.27,306.17,Single-ply,SBD,M
Boys,67.13,1,Mario Discua,Nevada Community,66.59,181.44,108.86,183.7,474,Single-ply,SBD,M
Boys,67.13,2,Austin Helton,Caddo Mills,67.13,167.83,92.99,176.9,437.72,Single-ply,SBD,M
Boys,67.13,3,Andrew Luong,Sunnyvale,61.23,122.47,74.84,136.08,333.39,Single-ply,SBD,M
Boys,74.84,1,Jacob Jenkins #3,Caddo Mills,71.12,181.44,102.06,222.26,505.76,Single-ply,SBD,M
Boys,74.84,2,James Purkins,Nevada Community,74.84,181.44,108.86,183.7,474,Single-ply,SBD,M
Boys,74.84,3,Rj Canady,Sunnyvale,74.84,172.37,95.25,167.83,435.45,Single-ply,SBD,M
Boys,74.84,4,Stephen Sikes,Caddo Mills,67.68,151.95,90.72,136.08,378.75,Single-ply,SBD,M
Boys,82.1,1,Nick Butler,Caddo Mills,82.01,199.58,120.2,235.87,555.65,Single-ply,SBD,M
Boys,82.1,2,Austin Payne,Sunnyvale,78.65,136.08,74.84,158.76,369.68,Single-ply,SBD,M
Boys,89.81,1,Armando Aguilar,Caddo Mills,82.64,217.72,127.01,213.19,557.92,Single-ply,SBD,M
Boys,89.81,2,Colton Wilson,Nevada Community,87.54,213.19,120.2,210.92,544.31,Single-ply,SBD,M
Boys,89.81,3,Colt Cooper,Caddo Mills,85.28,204.12,115.67,190.51,510.29,Single-ply,SBD,M
Boys,89.81,4,Ashton Wright,Sunnyvale,87.63,163.29,102.06,161.03,426.38,Single-ply,SBD,M
Boys,99.79,1,Chris Taylor,Caddo Mills,95.89,272.16,149.69,244.94,666.78,Single-ply,SBD,M
Boys,99.79,2,Justin Pate,Caddo Mills,90.99,226.8,129.27,226.8,582.87,Single-ply,SBD,M
Boys,99.79,3,Brett Harrington,Caddo Mills,91.81,217.72,127.01,215.46,560.19,Single-ply,SBD,M
Boys,99.79,4,Cole Thomas,Sunnyvale,96.62,192.78,102.06,158.76,453.59,Single-ply,SBD,M
Boys,99.79,5,Ryan Gabriel,Nevada Community,98.07,136.08,83.91,165.56,385.55,Single-ply,SBD,M
Boys,109.77,1,Jacob McCain,Caddo Mills,109.68,240.4,129.27,231.33,601.01,Single-ply,SBD,M
Boys,109.77,2,Tyler Menard,Caddo Mills,108.77,208.65,131.54,195.04,535.24,Single-ply,SBD,M
Boys,109.77,3,Devin Sterling,Sunnyvale,102.78,199.58,108.86,185.97,494.42,Single-ply,SBD,M
Boys,109.77,4,Noe Garcia #1,Nevada Community,107.32,183.7,74.84,192.78,451.32,Single-ply,SBD,M
Boys,124.74,1,Sam Bartis,Sunnyvale,115.94,183.7,104.33,174.63,462.66,Single-ply,SBD,M
Boys,124.74+,1,Austin Norton,Nevada Community,125.65,340.19,215.46,242.67,798.32,Single-ply,SBD,M
Boys,124.74+,2,Matt Kelley,Caddo Mills,140.43,362.87,174.63,249.48,786.98,Single-ply,SBD,M
Boys,124.74+,3,Marcus Alexander,Sunnyvale,132.9,226.8,136.08,238.14,601.01,Single-ply,SBD,M
Boys,124.74+,4,Jacob Pulley,Caddo Mills,144.88,238.14,136.08,215.46,589.67,Single-ply,SBD,M
Boys,124.74+,5,Jobin Chirayil,Sunnyvale,136.8,226.8,158.76,188.24,573.79,Single-ply,SBD,M
