Division,WeightClassKg,Place,Name,Team,BodyweightKg,Best3SquatKg,Best3BenchKg,Best3DeadliftKg,TotalKg,Equipment,Event,Sex
Boys,51.71,1,Shawn Moore,Mineral Wells,51.71,102.06,65.77,113.4,281.23,Single-ply,SBD,M
Boys,55.79,1,Korey Grant,Weatherford,52.98,136.08,77.11,149.69,362.87,Single-ply,SBD,M
Boys,59.87,1,Xavier Parker,Mineral Wells,59.87,170.1,90.72,192.78,453.59,Single-ply,SBD,M
Boys,59.87,2,Alexis Rodriguez,Decatur,59.69,156.49,90.72,167.83,415.04,Single-ply,SBD,M
Boys,59.87,3,Daniel Rodriguez,Decatur,59.87,124.74,79.38,129.27,333.39,Single-ply,SBD,M
Boys,59.87,4,Dominic Gross,Decatur,59.42,115.67,81.65,129.27,326.59,Single-ply,SBD,M
Boys,59.87,5,Dalton Gross,Decatur,59.87,117.93,79.38,115.67,312.98,Single-ply,SBD,M
Boys,67.13,1,Kylen Hart,Weatherford,67.04,204.12,115.67,181.44,501.22,Single-ply,SBD,M
Boys,67.13,2,Cesar Acosta,Decatur,66.5,163.29,115.67,167.83,446.79,Single-ply,SBD,M
Boys,67.13,3,Camden Richards,Mineral Wells,61.05,113.4,61.23,142.88,317.51,Single-ply,SBD,M
Boys,74.84,1,Colby White,Bridgeport,73.21,208.65,102.06,213.19,523.9,Single-ply,SBD,M
Boys,74.84,2,Nick Brown,Weatherford,74.75,142.88,97.52,181.44,421.84,Single-ply,SBD,M
Boys,74.84,3,Michael Marschall,Bridgeport,71.12,156.49,90.72,170.1,417.3,Single-ply,SBD,M
Boys,74.84,4,Devin Salazar,Mineral Wells,74.3,142.88,97.52,156.49,396.89,Single-ply,SBD,M
Boys,74.84,5,Colton Ligon,Graham,71.76,145.15,90.72,142.88,378.75,Single-ply,SBD,M
Boys,82.1,1,Tanner Knox,Weatherford,81.37,204.12,136.08,226.8,566.99,Single-ply,SBD,M
Boys,82.1,2,Christian Medina,Weatherford,81.83,181.44,131.54,188.24,501.22,Single-ply,SBD,M
Boys,82.1,3,Jj Lee,Graham,78.02,181.44,106.59,174.63,462.66,Single-ply,SBD,M
Boys,82.1,4,Reese Cannon,Decatur,80.56,167.83,97.52,176.9,442.25,Single-ply,SBD,M
Boys,82.1,5,Jared Singleton,Mineral Wells,79.92,165.56,108.86,165.56,439.98,Single-ply,SBD,M
Boys,82.1,6,Antonio Cano,Bridgeport,81.74,165.56,99.79,170.1,435.45,Single-ply,SBD,M
Boys,82.1,7,Tanner Marlett,Bridgeport,77.66,161.03,83.91,176.9,421.84,Single-ply,SBD,M
Boys,82.1,8,Edgar Tejada,Mineral Wells,74.93,142.88,104.33,167.83,415.04,Single-ply,SBD,M
Boys,82.1,DQ,Landon Hebert,Graham,82.1,199.58,106.59,,,Single-ply,SBD,M
Boys,89.81,1,Ryan Goodwin,Mineral Wells,88.45,210.92,136.08,199.58,546.58,Single-ply,SBD,M
Boys,89.81,2,Kaymin Flick,Decatur,89.72,215.46,124.74,183.7,523.9,Single-ply,SBD,M
Boys,89.81,3,Nathan Selman,Decatur,84.82,204.12,117.93,190.51,512.56,Single-ply,SBD,M
Boys,89.81,4,Colby Westbrook,Decatur,83.19,185.97,97.52,183.7,467.2,Single-ply,SBD,M
Boys,89.81,5,Carlos Amaro,Weatherford,84.55,163.29,120.2,174.63,458.13,Single-ply,SBD,M
Boys,89.81,6,JW Ethridge,Mineral Wells,89.45,158.76,97.52,165.56,421.84,Single-ply,SBD,M
Boys,99.79,1,Ethan Herron,Weatherford,92.08,272.16,149.69,240.4,662.24,Single-ply,SBD,M
Boys,99.79,2,Klayton Reed,Graham,93.89,272.16,158.76,217.72,648.64,Single-ply,SBD,M
Boys,99.79,3,Jonah Maston,Mineral Wells,93.98,249.48,142.88,242.67,635.03,Single-ply,SBD,M
Boys,99.79,4,Matteo Carrizales,Decatur,96.71,226.8,142.88,217.72,587.4,Single-ply,SBD,M
Boys,99.79,5,Isaih Baeza,Mineral Wells,96.8,215.46,120.2,190.51,526.17,Single-ply,SBD,M
Boys,99.79,6,Zeke Baker,Weatherford,97.34,183.7,138.35,185.97,508.02,Single-ply,SBD,M
Boys,99.79,7,Victor Davila,Weatherford,94.89,165.56,136.08,192.78,494.42,Single-ply,SBD,M
Boys,99.79,8,Dylan Songer,Weatherford,92.53,188.24,117.93,163.29,469.47,Single-ply,SBD,M
Boys,99.79,9,Logan Bond,Graham,93.71,174.63,92.99,170.1,437.72,Single-ply,SBD,M
Boys,99.79,10,Jacob O'Dell,Bridgeport,96.89,151.95,95.25,156.49,403.7,Single-ply,SBD,M
Boys,99.79,11,Skyler Nelson,Bridgeport,97.7,127.01,97.52,151.95,376.48,Single-ply,SBD,M
Boys,99.79,12,Isaac Vasquez,Bridgeport,99.79,127.01,97.52,151.95,376.48,Single-ply,SBD,M
Boys,109.77,1,Angel Esquivel,Weatherford,109.41,226.8,151.95,226.8,605.55,Single-ply,SBD,M
Boys,109.77,2,Jayden Conner,Weatherford,101.15,206.38,120.2,192.78,519.36,Single-ply,SBD,M
Boys,109.77,3,Brant Coley,Graham,106.05,204.12,131.54,181.44,517.1,Single-ply,SBD,M
Boys,124.74,1,Cayde Taylor,Weatherford,123.56,249.48,154.22,226.8,630.49,Single-ply,SBD,M
Boys,124.74,2,Quinton Pearson,Weatherford,113.76,226.8,120.2,181.44,528.44,Single-ply,SBD,M
Boys,124.74,3,Aaron Sanchez,Bridgeport,111.49,206.38,124.74,181.44,512.56,Single-ply,SBD,M
Boys,124.74,4,Ayden Mast,Decatur,112.85,192.78,115.67,183.7,492.15,Single-ply,SBD,M
Boys,124.74,5,Jake O'Harra,Weatherford,112.13,210.92,115.67,174.63,501.22,Single-ply,SBD,M
Boys,124.74+,1,Keaton Jordan,Decatur,130.63,244.94,145.15,181.44,571.53,Single-ply,SBD,M
Boys,124.74+,2,Anderson Ramirez,Decatur,138.44,217.72,131.54,190.51,539.77,Single-ply,SBD,M
Boys,124.74+,3,Chris Thompson,Bridgeport,137.26,183.7,115.67,161.03,460.4,Single-ply,SBD,M
