Name,WeightClassKg,Division,AgeRange,Sex,Best3SquatKg,Best3BenchKg,Best3DeadliftKg,TotalKg,Event,Equipment,Place
Sally Aden,52,Novice,,F,80,50,110,240,SBD,Single-ply,1
Z. Pellet,52,Novice,,F,62.5,45,85,192.5,SBD,Single-ply,2
Eric Milfeld,56,Novice,,M,117.5,70,155,342.5,SBD,Single-ply,1
Dean Lontos,67.5,Novice,,M,185,122.5,227.5,535,SBD,Single-ply,1
S. Fix,67.5,Novice,,M,155,110,205,470,SBD,Single-ply,2
K. Carmon,67.5,Novice,,M,152.5,97.5,170,420,SBD,Single-ply,3
G. Vustbinder,67.5,Novice,,M,,,,,SBD,Single-ply,DQ
R. Johnson,75,Novice,,M,220,120,240,580,SBD,Single-ply,1
Rick Cain,75,Novice,,M,227.5,120,220,567.5,SBD,Single-ply,2
F. Gomez,75,Novice,,M,192.5,132.5,222.5,547.5,SBD,Single-ply,3
J. Jackson,75,Novice,,M,237.5,47.5,250,535,SBD,Single-ply,4
S. Montgomery,75,Novice,,M,170,147.5,205,522.5,SBD,Single-ply,5
Tim Hill,75,Novice,,M,187.5,122.5,205,515,SBD,Single-ply,6
B. Ranken,82.5,Novice,,M,255,147.5,265,667.5,SBD,Single-ply,1
John Haynes,82.5,Novice,,M,230,135,260,625,SBD,Single-ply,2
K. Stegall,82.5,Novice,,M,250,125,237.5,612.5,SBD,Single-ply,3
Kevin Kish,82.5,Novice,,M,230,122.5,227.5,580,SBD,Single-ply,4
S. Kmiecik,82.5,Novice,,M,207.5,140,227.5,575,SBD,Single-ply,5
M. Miller,82.5,Novice,,M,210,162.5,197.5,570,SBD,Single-ply,6
Joe Daly,82.5,Novice,,M,172.5,127.5,227.5,527.5,SBD,Single-ply,7
J. Ingeman,82.5,Novice,,M,192.5,110,217.5,520,SBD,Single-ply,8
K. Dent,82.5,Novice,,M,190,120,200,510,SBD,Single-ply,9
L. Micheletti,82.5,Novice,,M,147.5,122.5,210,480,SBD,Single-ply,10
L. Hubert,82.5,Novice,,M,,,,,SBD,Single-ply,DQ
O. Guiton,82.5,Novice,,M,,,,,SBD,Single-ply,DQ
D. Adams,90,Novice,,M,255,190,267.5,712.5,SBD,Single-ply,1
David LeBoeuf,90,Novice,,M,272.5,177.5,250,700,SBD,Single-ply,2
D. Krutz,90,Novice,,M,232.5,182.5,275,690,SBD,Single-ply,3
R. Kincaid,90,Novice,,M,237.5,165,282.5,685,SBD,Single-ply,4
Mark Corder,90,Novice,,M,252.5,137.5,265,655,SBD,Single-ply,5
S. McGough,90,Novice,,M,250,167.5,232.5,650,SBD,Single-ply,6
Edward Bittick,90,Novice,,M,227.5,135,285,647.5,SBD,Single-ply,7
B. Lowery,90,Novice,,M,230,147.5,255,632.5,SBD,Single-ply,8
M. Dedman,90,Novice,,M,220,145,245,610,SBD,Single-ply,9
J. Pusch,90,Novice,,M,182.5,105,227.5,515,SBD,Single-ply,10
G. Amador,90,Novice,,M,182.5,,,,SBD,Single-ply,DQ
M. Redus,90,Novice,,M,252.5,,,,SBD,Single-ply,DQ
L. Prince,90,Novice,,M,,,,,SBD,Single-ply,DQ
J. Schmidt,100,Novice,,M,250,167.5,270,687.5,SBD,Single-ply,1
R. Henderson,100,Novice,,M,247.5,187.5,250,685,SBD,Single-ply,2
G. Charlton,100,Novice,,M,272.5,145,265,682.5,SBD,Single-ply,3
R. Ard,100,Novice,,M,245,150,272.5,667.5,SBD,Single-ply,4
A. Meyer,100,Novice,,M,225,187.5,247.5,660,SBD,Single-ply,5
E. Hester,100,Novice,,M,230,150,257.5,637.5,SBD,Single-ply,6
M. Graves,100,Novice,,M,205,167.5,227.5,600,SBD,Single-ply,7
M. Echols,100,Novice,,M,215,165,215,595,SBD,Single-ply,8
E. Smith,100,Novice,,M,210,,,,SBD,Single-ply,DQ
B. McGough,110,Novice,,M,282.5,162.5,310,755,SBD,Single-ply,1
S. Phillips,110,Novice,,M,282.5,162.5,295,740,SBD,Single-ply,2
P. Peterson,110,Novice,,M,237.5,182.5,250,670,SBD,Single-ply,3
D. Jackson,110,Novice,,M,215,160,245,620,SBD,Single-ply,4
I. Bright,110,Novice,,M,217.5,155,237.5,610,SBD,Single-ply,5
S. Schmidt,110,Novice,,M,215,140,250,605,SBD,Single-ply,6
C. Ruyle,125,Novice,,M,227.5,167.5,247.5,642.5,SBD,Single-ply,1
O. Guiton,125+,Novice,,M,265,197.5,265,727.5,SBD,Single-ply,1
E. Lane,125+,Novice,,M,250,142.5,220,612.5,SBD,Single-ply,2
Frank Restivo,60,Open,,M,170,120,190,480,SBD,Single-ply,1
Dean Lontos,67.5,Open,,M,185,122.5,227.5,535,SBD,Single-ply,1
H. Heath,67.5,Open,,M,200,117.5,200,517.5,SBD,Single-ply,2
Mark Speedy,67.5,Open,,M,182.5,115,170,467.5,SBD,Single-ply,3
Brian Broussard,67.5,Open,,M,,,,,SBD,Single-ply,DQ
Dan Gay,75,Open,,M,282.5,160,277.5,720,SBD,Single-ply,1
D. Carroll,75,Open,,M,250,182.5,272.5,705,SBD,Single-ply,2
John Valenti,75,Open,,M,262.5,145,272.5,680,SBD,Single-ply,3
J. Greco,75,Open,,M,220,147.5,237.5,605,SBD,Single-ply,4
Tony Vettraino,75,Open,,M,217.5,150,227.5,595,SBD,Single-ply,5
B. Haga,75,Open,,M,190,130,215,535,SBD,Single-ply,6
David Georges,82.5,Open,,M,262.5,190,272.5,725,SBD,Single-ply,1
K. Stegall,82.5,Open,,M,250,125,237.5,612.5,SBD,Single-ply,2
J. Ingeman,82.5,Open,,M,192.5,110,217.5,520,SBD,Single-ply,3
K. Dent,82.5,Open,,M,190,120,200,510,SBD,Single-ply,4
B. Spillers,82.5,Open,,M,,,,,SBD,Single-ply,DQ
K. Benton,82.5,Open,,M,,,,,SBD,Single-ply,DQ
J. Lurenmanik,82.5,Open,,M,282.5,,,,SBD,Single-ply,DQ
Stump Barnette,82.5,Open,,M,,,,,SBD,Single-ply,DQ
Chris Garcia,90,Open,,M,292.5,175,280,747.5,SBD,Single-ply,1
D. Adams,90,Open,,M,255,190,267.5,712.5,SBD,Single-ply,2
D. Krutz,90,Open,,M,232.5,182.5,275,690,SBD,Single-ply,3
S. McGough,90,Open,,M,250,167.5,232.5,650,SBD,Single-ply,4
Edward Bittick,90,Open,,M,227.5,135,285,647.5,SBD,Single-ply,5
Larry Mistric,90,Open,,M,,,,,SBD,Single-ply,DQ
Charlie Perkins,100,Open,,M,307.5,182.5,322.5,812.5,SBD,Single-ply,1
Pat Brown,100,Open,,M,287.5,175,310,772.5,SBD,Single-ply,2
Stacy Schaaf,100,Open,,M,280,180,295,755,SBD,Single-ply,3
R. Bleiler,100,Open,,M,262.5,162.5,250,675,SBD,Single-ply,5
J. Schmidt,100,Open,,M,250,167.5,270,687.5,SBD,Single-ply,4
B. McGough,110,Open,,M,282.5,182.5,310,775,SBD,Single-ply,1
S. Phillips,110,Open,,M,282.5,162.5,295,740,SBD,Single-ply,2
Tony Darwin,110,Open,,M,262.5,182.5,272.5,717.5,SBD,Single-ply,3
Hal Hudson,125,Open,,M,260,182.5,250,692.5,SBD,Single-ply,1
Joe Regaldo,125,Open,,M,,,,,SBD,Single-ply,DQ
E. Lane,125+,Open,,M,250,142.5,220,612.5,SBD,Single-ply,1
Luanne Thornton,,Open,,F,115,62.5,137.5,315,SBD,Single-ply,1
Patty Dent,,Open,,F,165,95,160,420,SBD,Single-ply,2
Patrice Sanders,52,Open,,F,87.5,52.5,97.5,237.5,SBD,Single-ply,3
C. Varnau,,Open,,F,122.5,62.5,137.5,322.5,SBD,Single-ply,4
Sally Aden,52,Open,,F,80,50,110,240,SBD,Single-ply,5
T. Thompson,,Open,,F,80,50,112.5,242.5,SBD,Single-ply,6
T. Cummings,,Open,,F,85,52.5,122.5,260,SBD,Single-ply,7
Z. Pellet,52,Open,,F,62.5,45,85,192.5,SBD,Single-ply,8
B. Boyd,,Open,,F,105,52.5,115,272.5,SBD,Single-ply,9
Dean Lontos,,Teen,13-19,M,185,122.5,227.5,535,SBD,Single-ply,2
S. McGough,,Teen,13-19,M,250,167.5,232.5,650,SBD,Single-ply,3
B. Haga,,Teen,13-19,M,190,130,215,535,SBD,Single-ply,4
Michael Hiller,,Teen,13-19,M,210,162.5,197.5,570,SBD,Single-ply,4
J. Ingeman,,Teen,13-19,M,192.5,110,217.5,520,SBD,Single-ply,5
S. Schmidt,,Teen,13-19,M,215,140,250,605,SBD,Single-ply,6
R. Gomez,,Teen,13-19,M,170,145,207.5,522.5,SBD,Single-ply,7
R. Mosley,,Teen,13-19,M,147.5,122.5,182.5,452.5,SBD,Single-ply,8
K. Benton,,Teen,13-19,M,137.5,,,,SBD,Single-ply,DQ
Hal Hudson,,Masters,40-999,M,262.5,182.5,272.5,717.5,SBD,Single-ply,1
J. Hurst,,Masters,40-999,M,215,185,230,630,SBD,Single-ply,2
D. Jackson,,Masters,40-999,M,215,160,245,620,SBD,Single-ply,3
John Billings,,Masters,40-999,M,205,127.5,200,532.5,SBD,Single-ply,4
R. Daniels,,Masters,40-999,M,157.5,125,182.5,465,SBD,Single-ply,5
B. Spillers,,Masters,40-999,M,117.5,92.5,210,420,SBD,Single-ply,6
T. Collins,,Masters,40-999,M,102.5,142.5,62.5,307.5,SBD,Single-ply,7
